<?xml version="1.0" encoding="UTF-8" standalone="no"?>
<svg
   xmlns:dc="http://purl.org/dc/elements/1.1/"
   xmlns:cc="http://creativecommons.org/ns#"
   xmlns:rdf="http://www.w3.org/1999/02/22-rdf-syntax-ns#"
   xmlns:svg="http://www.w3.org/2000/svg"
   xmlns="http://www.w3.org/2000/svg"
   xmlns:xlink="http://www.w3.org/1999/xlink"
   xmlns:sodipodi="http://sodipodi.sourceforge.net/DTD/sodipodi-0.dtd"
   xmlns:inkscape="http://www.inkscape.org/namespaces/inkscape"
   id="svg1"
   height="128"
   width="128"
   version="1.0"
   sodipodi:docname="logo-color2.svg"
   inkscape:version="0.92.0 r">
  <sodipodi:namedview
     pagecolor="#ffffff"
     bordercolor="#666666"
     borderopacity="1"
     objecttolerance="10"
     gridtolerance="10"
     guidetolerance="10"
     inkscape:pageopacity="0"
     inkscape:pageshadow="2"
     inkscape:window-width="2456"
     inkscape:window-height="1558"
     id="namedview409"
     showgrid="false"
     inkscape:zoom="3.4648232"
     inkscape:cx="59.835399"
     inkscape:cy="63.384957"
     inkscape:window-x="104"
     inkscape:window-y="0"
     inkscape:window-maximized="1"
     inkscape:current-layer="svg1" />
  <metadata
     id="metadata12735">
    <rdf:RDF>
      <cc:Work
         rdf:about="">
        <dc:format>image/svg+xml</dc:format>
        <dc:type
           rdf:resource="http://purl.org/dc/dcmitype/StillImage" />
        <dc:title></dc:title>
      </cc:Work>
    </rdf:RDF>
  </metadata>
  <defs
     id="defs3">
    <linearGradient
       id="linearGradient2919">
      <stop
         offset="0"
         style="stop-color:#000000;stop-opacity:0.82352942"
         id="stop2920" />
      <stop
         offset="0.32765517"
         style="stop-color:#000000;stop-opacity:0.3137255"
         id="stop2923" />
      <stop
         offset="1"
         style="stop-color:#000000;stop-opacity:0"
         id="stop2921" />
    </linearGradient>
    <linearGradient
       id="linearGradient2251">
      <stop
         offset="0"
         style="stop-color:#000000;stop-opacity:1"
         id="stop2252" />
      <stop
         offset="1"
         style="stop-color:#d0d0d0;stop-opacity:1"
         id="stop2253" />
    </linearGradient>
    <linearGradient
       id="linearGradient2102">
      <stop
         offset="0"
         style="stop-color:#ffffff;stop-opacity:0"
         id="stop2103" />
      <stop
         offset="1"
         style="stop-color:#ffffff;stop-opacity:0.68281937"
         id="stop2104" />
    </linearGradient>
    <linearGradient
       id="linearGradient2091">
      <stop
         offset="0"
         style="stop-color:#000000;stop-opacity:0"
         id="stop2092" />
      <stop
         offset="1"
         style="stop-color:#ffffff;stop-opacity:0.17621145"
         id="stop2093" />
    </linearGradient>
    <linearGradient
       id="linearGradient2029">
      <stop
         offset="0"
         style="stop-color:#000000;stop-opacity:0.32549021"
         id="stop2030" />
      <stop
         offset="1"
         style="stop-color:#ffffff;stop-opacity:0.03524229"
         id="stop2031" />
    </linearGradient>
    <linearGradient
       id="linearGradient2025">
      <stop
         offset="0"
         style="stop-color:#ffffff;stop-opacity:0"
         id="stop2026" />
      <stop
         offset="0.5642069"
         style="stop-color:#ffffff;stop-opacity:0.29955947"
         id="stop2027" />
      <stop
         offset="1"
         style="stop-color:#ffffff;stop-opacity:0.67400879"
         id="stop2028" />
    </linearGradient>
    <linearGradient
       id="linearGradient1984">
      <stop
         offset="0"
         style="stop-color:#000000;stop-opacity:0"
         id="stop1985" />
      <stop
         offset="1"
         style="stop-color:#ffffff;stop-opacity:0.43171805"
         id="stop1986" />
    </linearGradient>
    <linearGradient
       id="linearGradient1981">
      <stop
         offset="0"
         style="stop-color:#000000;stop-opacity:0.60000002"
         id="stop1982" />
      <stop
         offset="1"
         style="stop-color:#ffffff;stop-opacity:0.64313728"
         id="stop1983" />
    </linearGradient>
    <marker
       style="overflow:visible"
       id="CurveIn"
       orient="auto"
       refY="0"
       refX="0">
      <path
         style="fill:none;fill-rule:evenodd;stroke:#000000;stroke-width:1pt;marker-start:none;marker-end:none"
         id="path942"
         transform="scale(0.6,0.6)"
         d="m 4.625493,-5.0456926 c -2.76,0 -5.00000002,2.24 -5.00000002,5.00000002 0,2.75999998 2.24000002,4.99999998 5.00000002,4.99999998" />
    </marker>
    <marker
       style="overflow:visible"
       id="Club"
       orient="auto"
       refY="0"
       refX="0">
      <path
         style="fill-rule:evenodd;stroke:#000000;stroke-width:0.74587913pt;marker-start:none"
         id="path1015"
         transform="scale(0.6,0.6)"
         d="m -1.5971367,-7.0977635 c -1.8892507,0 -3.426382,1.5371314 -3.426382,3.4263822 0,0.6566798 0.2383531,1.2269257 0.5594092,1.7481542 -0.038751,0.032111 -0.079672,0.058463 -0.1165436,0.093235 -0.6224234,-0.8549928 -1.5893983,-1.4451409 -2.7271199,-1.4451409 -1.8892515,-1e-7 -3.426382,1.5371314 -3.426382,3.42638214 0,1.88925076 1.5371305,3.42638216 3.426382,3.42638216 0.9934462,0 1.868619,-0.4420611 2.4940326,-1.1188187 -0.124687,0.3548915 -0.2097783,0.7214874 -0.2097783,1.1188187 0,1.8892506 1.5371313,3.4263822 3.426382,3.4263822 1.88925064,0 3.4263821,-1.5371316 3.4263821,-3.4263822 0,-0.7933959 -0.3155586,-1.4938285 -0.7691878,-2.0744763 C 2.4152718,1.7663868 3.7718375,2.2973711 4.7661444,3.8340272 4.0279463,3.0958289 3.5540908,1.7534117 3.5540908,-0.05852936 l -0.6293354,-0.04661745 0.5827179,-0.0233087 c 0,-1.81194109 0.4505466,-3.15435829 1.188745,-3.89255659 -0.9590906,1.4822308 -2.2571634,2.0263625 -3.5662345,2.3075635 0.4041964,-0.5619092 0.6992616,-1.213407 0.6992616,-1.9579327 0,-1.8892506 -1.53713146,-3.4263822 -3.4263821,-3.4263822 z" />
    </marker>
    <marker
       style="overflow:visible"
       id="Torso"
       orient="auto"
       refY="0"
       refX="0">
      <g
         id="g2045"
         transform="scale(0.7,0.7)">
        <path
           style="fill:none;fill-opacity:0.75;fill-rule:evenodd;stroke:#000000;stroke-width:1.25;marker-start:none;marker-mid:none;marker-end:none"
           id="path1128"
           d="m -4.7792281,-3.239542 c 2.350374,0.3659393 5.30026732,1.9375477 5.03715532,3.62748546 C -0.00518779,2.0778819 -2.2126741,2.6176539 -4.5630471,2.2517169 -6.9134221,1.8857769 -8.521035,0.75201414 -8.257922,-0.93792336 -7.994809,-2.6278615 -7.1296041,-3.6054813 -4.7792281,-3.239542 Z" />
        <path
           style="fill:none;fill-opacity:0.75;fill-rule:evenodd;stroke:#000000;stroke-width:1pt;marker-end:none"
           id="path1909"
           d="M 4.4598789,0.08866574 C -2.5564571,-4.378332 5.2248769,-3.9061806 -0.84829578,-8.7197331" />
        <path
           style="fill:none;fill-opacity:0.75;fill-rule:evenodd;stroke:#000000;stroke-width:1pt;marker-start:none;marker-end:none"
           id="path1910"
           d="M 4.9298719,0.05752074 C -1.3872731,1.7494689 1.8027579,5.4782079 -4.9448731,7.5462725" />
        <rect
           style="fill-rule:evenodd;stroke-width:1pt;marker-end:none"
           id="rect2035"
           transform="matrix(0.527536,-0.849533,0.887668,0.460484,0,0)"
           y="-1.7408575"
           x="-10.391706"
           height="2.7608147"
           width="2.6366582" />
        <rect
           style="fill-rule:evenodd;stroke-width:1pt;marker-end:none"
           id="rect2036"
           transform="matrix(0.671205,-0.741272,0.790802,0.612072,0,0)"
           y="-7.9629307"
           x="4.9587269"
           height="2.8614161"
           width="2.7327356" />
        <path
           style="fill:#ff0000;fill-opacity:0.75;fill-rule:evenodd;stroke:#000000;stroke-width:1pt;marker-start:none;marker-end:none"
           id="path2037"
           transform="matrix(0,-1.109517,1.109517,0,25.96648,19.71619)"
           d="m 16.779951,-28.685045 a 0.60731727,0.60731727 0 1 1 -1.214634,0 0.60731727,0.60731727 0 1 1 1.214634,0 z" />
        <path
           style="fill:#ff0000;fill-opacity:0.75;fill-rule:evenodd;stroke:#000000;stroke-width:1pt;marker-start:none;marker-end:none"
           id="path2038"
           transform="matrix(0,-1.109517,1.109517,0,26.8245,16.99126)"
           d="m 16.779951,-28.685045 a 0.60731727,0.60731727 0 1 1 -1.214634,0 0.60731727,0.60731727 0 1 1 1.214634,0 z" />
      </g>
    </marker>
    <marker
       style="overflow:visible"
       id="Legs"
       orient="auto"
       refY="0"
       refX="0">
      <g
         id="g1163"
         transform="scale(-0.7,-0.7)">
        <g
           id="g2032"
           transform="matrix(0,-1,-1,0,20.70862,21.31391)">
          <path
             style="fill:none;fill-opacity:0.75;fill-rule:evenodd;stroke:#000000;stroke-width:1pt;marker-start:none;marker-end:none"
             id="path2019"
             d="m 21.22125,20.67536 c -6.910151,4.721157 -2.454525,6.606844 -5.841071,13.443235" />
          <path
             style="fill:none;fill-opacity:0.75;fill-rule:evenodd;stroke:#000000;stroke-width:1pt;marker-start:none;marker-end:none"
             id="path2026"
             d="m 21.39811,20.54812 c -1.360509,8.347524 3.536072,8.76994 4.505041,13.824958" />
        </g>
        <path
           style="fill:#030300;fill-rule:evenodd;stroke-width:1pt;marker-end:none"
           id="polygon2039"
           d="m -14.09007,-6.7318716 -0.922168,4.043383 3.962751,-1.22307 -3.040583,-2.820313 z" />
        <path
           style="fill:#030300;fill-rule:evenodd;stroke-width:1pt;marker-end:none"
           id="path2041"
           d="m -15.215679,4.5567534 1.874127,3.699613 2.266874,-3.472855 -4.141001,-0.226758 z" />
      </g>
    </marker>
    <marker
       style="overflow:visible"
       id="DistanceIn"
       orient="auto"
       refY="0"
       refX="0">
      <g
         id="g987"
         transform="matrix(0.6,0,0,0.6,4.8,0)">
        <path
           style="fill-rule:evenodd;stroke:#000000;stroke-width:1pt;marker-start:none"
           id="path974"
           d="M 0,0 5,-5 -12.5,0 5,5 0,0 Z" />
        <path
           style="fill:none;fill-opacity:0.75;fill-rule:evenodd;stroke:#000000;stroke-width:1.2pt;marker-start:none"
           id="path976"
           d="m -14.759949,-7 0,72" />
      </g>
    </marker>
    <marker
       style="overflow:visible"
       id="DistanceOut"
       orient="auto"
       refY="0"
       refX="0">
      <g
         id="g990"
         transform="matrix(-0.6,0,0,0.6,-4.8,0)">
        <path
           style="fill-rule:evenodd;stroke:#000000;stroke-width:1pt;marker-start:none"
           id="path991"
           d="M 0,0 5,-5 -12.5,0 5,5 0,0 Z" />
        <path
           style="fill:none;fill-opacity:0.75;fill-rule:evenodd;stroke:#000000;stroke-width:1.2pt;marker-start:none"
           id="path992"
           d="m -14.759949,-7 0,72" />
      </g>
    </marker>
    <marker
       style="overflow:visible"
       id="TriangleOutL"
       orient="auto"
       refY="0"
       refX="0">
      <path
         style="fill-rule:evenodd;stroke:#000000;stroke-width:1pt;marker-start:none"
         id="path1870"
         transform="scale(0.8,0.8)"
         d="m 5.77,0 -8.65,5 0,-10 8.65,5 z" />
    </marker>
    <marker
       style="overflow:visible"
       id="Arrow2L"
       orient="auto"
       refY="0"
       refX="0">
      <path
         style="font-size:12px;fill-rule:evenodd;stroke-width:0.625;stroke-linejoin:round"
         id="path1916"
         transform="matrix(1.1,0,0,1.1,-5.5,0)"
         d="M 8.7185878,4.0337352 -2.2072895,0.01601326 8.7185884,-4.0017078 c -1.7454984,2.3720609 -1.7354408,5.6174519 -6e-7,8.035443 z" />
    </marker>
    <linearGradient
       id="linearGradient1797">
      <stop
         offset="0"
         style="stop-color:#00d5c7;stop-opacity:1"
         id="stop1798" />
      <stop
         offset="1"
         style="stop-color:#feff00;stop-opacity:1"
         id="stop1801" />
    </linearGradient>
    <linearGradient
       id="linearGradient1792">
      <stop
         offset="0"
         style="stop-color:#ea00ff;stop-opacity:1"
         id="stop1793" />
      <stop
         offset="0.13519125"
         style="stop-color:#ff0085;stop-opacity:1"
         id="stop1794" />
      <stop
         offset="0.33846897"
         style="stop-color:#ff0000;stop-opacity:1"
         id="stop1795" />
      <stop
         offset="1"
         style="stop-color:#feff00;stop-opacity:1"
         id="stop1796" />
    </linearGradient>
    <linearGradient
       id="linearGradient1787">
      <stop
         offset="0"
         style="stop-color:#00d5c8;stop-opacity:1"
         id="stop1788" />
      <stop
         offset="0.42903447"
         style="stop-color:#0097ff;stop-opacity:1"
         id="stop1790" />
      <stop
         offset="1"
         style="stop-color:#3c00ff;stop-opacity:1"
         id="stop1791" />
    </linearGradient>
    <linearGradient
       id="linearGradient1784">
      <stop
         offset="0"
         style="stop-color:#3c00ff;stop-opacity:1"
         id="stop1785" />
      <stop
         offset="1"
         style="stop-color:#ea00ff;stop-opacity:1"
         id="stop1786" />
    </linearGradient>
    <linearGradient
       id="linearGradient4167">
      <stop
         offset="0"
         style="stop-color:#404040;stop-opacity:0.59215689"
         id="stop4168" />
      <stop
         offset="1"
         style="stop-color:#c6c6c6;stop-opacity:0.74449337"
         id="stop4169" />
    </linearGradient>
    <linearGradient
       id="linearGradient4161">
      <stop
         offset="0"
         style="stop-color:#000000;stop-opacity:0.20704846"
         id="stop4162" />
      <stop
         offset="0.64531034"
         style="stop-color:#ffffff;stop-opacity:0.06167401"
         id="stop4166" />
      <stop
         offset="1"
         style="stop-color:#ffffff;stop-opacity:0.83529413"
         id="stop4163" />
    </linearGradient>
    <linearGradient
       id="linearGradient4149">
      <stop
         offset="0"
         style="stop-color:#5c5c16;stop-opacity:0.61674011"
         id="stop4150" />
      <stop
         offset="1"
         style="stop-color:#6a650b;stop-opacity:0.84313726"
         id="stop4151" />
    </linearGradient>
    <linearGradient
       id="linearGradient4145">
      <stop
         offset="0"
         style="stop-color:#e4d526;stop-opacity:0.39207047"
         id="stop4146" />
      <stop
         offset="1"
         style="stop-color:#89854f;stop-opacity:0.56862748"
         id="stop4147" />
    </linearGradient>
    <linearGradient
       id="linearGradient4132">
      <stop
         offset="0"
         style="stop-color:#000000;stop-opacity:0.1277533"
         id="stop4133" />
      <stop
         offset="1"
         style="stop-color:#fffbab;stop-opacity:0.17621145"
         id="stop4134" />
    </linearGradient>
    <linearGradient
       id="linearGradient4124">
      <stop
         offset="0"
         style="stop-color:#3a3a3a;stop-opacity:1"
         id="stop4125" />
      <stop
         offset="1"
         style="stop-color:#979797;stop-opacity:1"
         id="stop4129" />
    </linearGradient>
    <marker
       style="overflow:visible"
       id="Tail"
       orient="auto"
       refY="0"
       refX="0">
      <g
         id="g1087"
         transform="scale(-1.2,-1.2)">
        <path
           style="fill:none;fill-rule:evenodd;stroke:#000000;stroke-width:0.80000001;stroke-linecap:round;marker-start:none;marker-end:none"
           id="path1126"
           d="M -3.8048674,-3.9585227 0.54352094,-6.8114835e-4" />
        <path
           style="fill:none;fill-rule:evenodd;stroke:#000000;stroke-width:0.80000001;stroke-linecap:round;marker-start:none;marker-end:none"
           id="path1127"
           d="M -1.2866832,-3.9585227 3.0617053,-6.8114835e-4" />
        <path
           style="fill:none;fill-rule:evenodd;stroke:#000000;stroke-width:0.80000001;stroke-linecap:round;marker-start:none;marker-end:none"
           id="path1764"
           d="M 1.3053582,-3.9585227 5.6537466,-6.8114835e-4" />
        <path
           style="fill:none;fill-rule:evenodd;stroke:#000000;stroke-width:0.80000001;stroke-linecap:round;marker-start:none;marker-end:none"
           id="path1848"
           d="M -3.8048674,4.1775838 0.54352094,0.21974226" />
        <path
           style="fill:none;fill-rule:evenodd;stroke:#000000;stroke-width:0.80000001;stroke-linecap:round;marker-start:none;marker-end:none"
           id="path1849"
           d="M -1.2866832,4.1775838 3.0617053,0.21974226" />
        <path
           style="fill:none;fill-rule:evenodd;stroke:#000000;stroke-width:0.80000001;stroke-linecap:round;marker-start:none;marker-end:none"
           id="path1850"
           d="M 1.3053582,4.1775838 5.6537466,0.21974226" />
      </g>
    </marker>
    <marker
       style="overflow:visible"
       id="Arrow1S"
       orient="auto"
       refY="0"
       refX="0">
      <path
         style="fill-rule:evenodd;stroke:#000000;stroke-width:1pt;marker-start:none"
         id="path983"
         transform="scale(0.2,0.2)"
         d="M 0,0 5,-5 -12.5,0 5,5 0,0 Z" />
    </marker>
    <marker
       style="overflow:visible"
       id="Arrow1M"
       orient="auto"
       refY="0"
       refX="0">
      <path
         style="fill-rule:evenodd;stroke:#000000;stroke-width:1pt;marker-start:none"
         id="path1777"
         transform="scale(0.4,0.4)"
         d="M 0,0 5,-5 -12.5,0 5,5 0,0 Z" />
    </marker>
    <marker
       style="overflow:visible"
       id="Arrow1L"
       orient="auto"
       refY="0"
       refX="0">
      <path
         style="fill-rule:evenodd;stroke:#000000;stroke-width:1pt;marker-start:none"
         id="path1779"
         transform="scale(0.8,0.8)"
         d="M 0,0 5,-5 -12.5,0 5,5 0,0 Z" />
    </marker>
    <linearGradient
       id="linearGradient1673">
      <stop
         offset="0"
         style="stop-color:#000000;stop-opacity:0.30588236"
         id="stop1674" />
      <stop
         offset="1"
         style="stop-color:#fffbab;stop-opacity:0.73127753"
         id="stop1675" />
    </linearGradient>
    <linearGradient
       id="linearGradient1651">
      <stop
         offset="0"
         style="stop-color:#fffc00;stop-opacity:1"
         id="stop1652" />
      <stop
         offset="0.5"
         style="stop-color:#818181;stop-opacity:1"
         id="stop1662" />
      <stop
         offset="0.625"
         style="stop-color:#555b94;stop-opacity:1"
         id="stop1666" />
      <stop
         offset="0.75"
         style="stop-color:#4040c0;stop-opacity:1"
         id="stop1664" />
      <stop
         offset="1"
         style="stop-color:#3c00ff;stop-opacity:1"
         id="stop1653" />
    </linearGradient>
    <linearGradient
       id="linearGradient1647">
      <stop
         offset="0"
         style="stop-color:#000000;stop-opacity:0.60000002"
         id="stop1648" />
      <stop
         offset="1"
         style="stop-color:#ffffff;stop-opacity:0.64313728"
         id="stop1649" />
    </linearGradient>
    <linearGradient
       id="linearGradient1850">
      <stop
         offset="0"
         style="stop-color:#a2ff00;stop-opacity:1"
         id="stop1851" />
      <stop
         offset="0.23303448"
         style="stop-color:#00d4c7;stop-opacity:1"
         id="stop1853" />
      <stop
         offset="0.67575932"
         style="stop-color:#0097ff;stop-opacity:1"
         id="stop1854" />
      <stop
         offset="1"
         style="stop-color:#0006ff;stop-opacity:1"
         id="stop1852" />
    </linearGradient>
    <linearGradient
       id="linearGradient1845">
      <stop
         offset="0"
         style="stop-color:#0009ff;stop-opacity:1"
         id="stop1846" />
      <stop
         offset="1"
         style="stop-color:#ea00ff;stop-opacity:1"
         id="stop1848" />
    </linearGradient>
    <linearGradient
       id="linearGradient1775">
      <stop
         offset="0"
         style="stop-color:#fffae8;stop-opacity:0.17180617"
         id="stop1776" />
      <stop
         offset="1"
         style="stop-color:#325ab8;stop-opacity:0.55947137"
         id="stop1777" />
    </linearGradient>
    <linearGradient
       id="linearGradient1772">
      <stop
         offset="0"
         style="stop-color:#c8f2fb;stop-opacity:0.29019609"
         id="stop1773" />
      <stop
         offset="1"
         style="stop-color:#000102;stop-opacity:0.03964758"
         id="stop1774" />
    </linearGradient>
    <linearGradient
       id="linearGradient1768">
      <stop
         offset="0"
         style="stop-color:#cee3fb;stop-opacity:0.85490197"
         id="stop1769" />
      <stop
         offset="1"
         style="stop-color:#5c93c9;stop-opacity:0.03921569"
         id="stop1770" />
    </linearGradient>
    <linearGradient
       id="linearGradient1739">
      <stop
         offset="0"
         style="stop-color:#57595a;stop-opacity:1"
         id="stop1740" />
      <stop
         offset="1"
         style="stop-color:#0cbad7;stop-opacity:0.19383261"
         id="stop1741" />
    </linearGradient>
    <linearGradient
       id="linearGradient1713">
      <stop
         offset="0"
         style="stop-color:#5d5739;stop-opacity:0.59911895"
         id="stop1714" />
      <stop
         offset="1"
         style="stop-color:#d7c80c;stop-opacity:0.1585903"
         id="stop1715" />
    </linearGradient>
    <linearGradient
       id="linearGradient1709">
      <stop
         offset="0"
         style="stop-color:#ea00ff;stop-opacity:1"
         id="stop1710" />
      <stop
         offset="0.09565717"
         style="stop-color:#ff0085;stop-opacity:1"
         id="stop1855" />
      <stop
         offset="0.33846897"
         style="stop-color:#ff0000;stop-opacity:1"
         id="stop1780" />
      <stop
         offset="1"
         style="stop-color:#feff00;stop-opacity:1"
         id="stop1711" />
    </linearGradient>
    <linearGradient
       id="linearGradient1705">
      <stop
         offset="0"
         style="stop-color:#e3e2ac;stop-opacity:1"
         id="stop1706" />
      <stop
         offset="0.5"
         style="stop-color:#e9e8b7;stop-opacity:0.95294118"
         id="stop1736" />
      <stop
         offset="1"
         style="stop-color:#f0efc2;stop-opacity:0.90588236"
         id="stop1707" />
    </linearGradient>
    <radialGradient
       gradientTransform="scale(1.1754075,0.85076881)"
       spreadMethod="pad"
       gradientUnits="userSpaceOnUse"
       xlink:href="#linearGradient2025"
       id="radialGradient1969"
       fy="750.94794"
       fx="252.92682"
       r="345.01355"
       cy="753.06787"
       cx="249.76877" />
    <linearGradient
       gradientUnits="userSpaceOnUse"
       gradientTransform="scale(1.1556876,0.86528577)"
       spreadMethod="pad"
       xlink:href="#linearGradient2029"
       id="linearGradient2033"
       y2="661.33209"
       x2="95.579491"
       y1="605.97003"
       x1="487.03067" />
    <linearGradient
       gradientUnits="userSpaceOnUse"
       gradientTransform="scale(1.155687,0.86528621)"
       xlink:href="#linearGradient2102"
       id="linearGradient2106"
       y2="831.52612"
       x2="-92.16201"
       y1="741.04291"
       x1="199.88042" />
    <linearGradient
       gradientUnits="userSpaceOnUse"
       gradientTransform="scale(0.33289043,3.0039914)"
       xlink:href="#linearGradient2919"
       id="linearGradient1858"
       y2="-114.34927"
       x2="2611.3352"
       y1="-114.34927"
       x1="2438.1489" />
    <radialGradient
       gradientUnits="userSpaceOnUse"
       gradientTransform="scale(0.8860685,1.1285809)"
       xlink:href="#linearGradient2919"
       id="radialGradient1861"
       fy="718.94183"
       fx="681.56183"
       r="50.992435"
       cy="719.17896"
       cx="681.2431" />
    <linearGradient
       gradientUnits="userSpaceOnUse"
       gradientTransform="scale(0.34484519,2.8998519)"
       xlink:href="#linearGradient2919"
       id="linearGradient2922"
       y2="214.13252"
       x2="1881.9615"
       y1="214.13252"
       x1="1750.4377" />
    <clipPath
       clipPathUnits="userSpaceOnUse"
       id="clipPath15134">
      <path
         id="path15136"
         d="m 179.69849,-18.097207 c -39.54,-41.393433 -54.52196,-53.131871 -65.79704,-61.781253 -11.27508,-8.649381 -16.989854,-11.583989 -22.241242,-12.819614 -5.25141,-1.23562 -7.72266,-0.154455 -9.26718,1.235625 -1.54454,1.39008 -7.41376,8.031566 -8.18602,23.631341 -0.77227,15.599756 1.69899,32.126243 5.56031,45.25476 3.86133,13.1285221 14.209678,34.90641 18.688818,40.77562 4.479144,5.869231 5.251414,4.324701 5.251414,4.324701 0,0 2.93461,-4.170241 15.29086,-12.201811 12.35626,-8.0315479 25.0214,-15.2908479 36.14204,-19.7699879 11.12061,-4.4791401 24.55804,-8.6493811 24.55804,-8.6493811 z"
         style="fill:none;fill-rule:evenodd;stroke:#000000;stroke-width:0.66360509px;stroke-linecap:butt;stroke-linejoin:miter;stroke-opacity:1" />
    </clipPath>
    <filter
       style="color-interpolation-filters:sRGB"
       id="filter14802"
       x="-0.2159334"
       width="1.4318668"
       y="-0.28579402"
       height="1.571588">
      <feGaussianBlur
         stdDeviation="10.41207"
         id="feGaussianBlur14804" />
    </filter>
    <filter
       style="color-interpolation-filters:sRGB"
       id="filter14270"
       x="-0.2006053"
       width="1.4012105"
       y="-0.30239242"
       height="1.6047848">
      <feGaussianBlur
         stdDeviation="12.535315"
         id="feGaussianBlur14272" />
    </filter>
    <filter
       style="color-interpolation-filters:sRGB"
       id="filter14566"
       x="-0.27619299"
       width="1.552386"
       y="-0.27580729"
       height="1.5516146">
      <feGaussianBlur
         stdDeviation="10.048233"
         id="feGaussianBlur14568" />
    </filter>
    <filter
       style="color-interpolation-filters:sRGB"
       id="filter14322"
       x="-0.30629084"
       width="1.6125817"
       y="-0.33852005"
       height="1.6770401">
      <feGaussianBlur
         stdDeviation="11.008424"
         id="feGaussianBlur14324" />
    </filter>
    <filter
       style="color-interpolation-filters:sRGB"
       id="filter15122"
       x="-0.40597516"
       width="1.8119503"
       y="-0.41738287"
       height="1.8347658">
      <feGaussianBlur
         stdDeviation="14.589042"
         id="feGaussianBlur15124" />
    </filter>
    <filter
       style="color-interpolation-filters:sRGB"
       id="filter15030"
       x="-0.41838735"
       width="1.8367747"
       y="-0.30320004"
       height="1.6064001">
      <feGaussianBlur
         stdDeviation="15.037294"
         id="feGaussianBlur15032" />
    </filter>
    <filter
       style="color-interpolation-filters:sRGB"
       id="filter17690"
       x="-0.97110003"
       width="2.9422002"
       y="-0.99478531"
       height="2.9895706">
      <feGaussianBlur
         stdDeviation="11.959164"
         id="feGaussianBlur17692" />
    </filter>
    <filter
       height="1.2814364"
       y="-0.14071825"
       width="1.0686684"
       x="-0.03433419"
       id="filter4453"
       style="color-interpolation-filters:sRGB">
      <feGaussianBlur
         id="feGaussianBlur4455"
         stdDeviation="1.7745653" />
    </filter>
    <clipPath
       id="clipPath15134-9"
       clipPathUnits="userSpaceOnUse">
      <path
         style="fill:none;fill-rule:evenodd;stroke:#000000;stroke-width:0.66360509px;stroke-linecap:butt;stroke-linejoin:miter;stroke-opacity:1"
         d="m 179.69849,-18.097207 c -39.54,-41.393433 -54.52196,-53.131871 -65.79704,-61.781253 -11.27508,-8.649381 -16.989854,-11.583989 -22.241242,-12.819614 -5.25141,-1.23562 -7.72266,-0.154455 -9.26718,1.235625 -1.54454,1.39008 -7.41376,8.031566 -8.18602,23.631341 -0.77227,15.599756 1.69899,32.126243 5.56031,45.25476 3.86133,13.1285221 14.209678,34.90641 18.688818,40.77562 4.479144,5.869231 5.251414,4.324701 5.251414,4.324701 0,0 2.93461,-4.170241 15.29086,-12.201811 12.35626,-8.0315479 25.0214,-15.2908479 36.14204,-19.7699879 11.12061,-4.4791401 24.55804,-8.6493811 24.55804,-8.6493811 z"
         id="path15136-7" />
    </clipPath>
    <filter
       height="1.571588"
       y="-0.28579402"
       width="1.4318668"
       x="-0.2159334"
       id="filter14802-7"
       style="color-interpolation-filters:sRGB">
      <feGaussianBlur
         id="feGaussianBlur14804-4"
         stdDeviation="10.41207" />
    </filter>
    <filter
       height="1.6047848"
       y="-0.30239242"
       width="1.4012105"
       x="-0.2006053"
       id="filter14270-5"
       style="color-interpolation-filters:sRGB">
      <feGaussianBlur
         id="feGaussianBlur14272-1"
         stdDeviation="12.535315" />
    </filter>
    <filter
       height="1.5516146"
       y="-0.27580729"
       width="1.552386"
       x="-0.27619299"
       id="filter14566-5"
       style="color-interpolation-filters:sRGB">
      <feGaussianBlur
         id="feGaussianBlur14568-7"
         stdDeviation="10.048233" />
    </filter>
    <filter
       height="1.6770401"
       y="-0.33852005"
       width="1.6125817"
       x="-0.30629084"
       id="filter14322-9"
       style="color-interpolation-filters:sRGB">
      <feGaussianBlur
         id="feGaussianBlur14324-7"
         stdDeviation="11.008424" />
    </filter>
    <filter
       height="1.8347658"
       y="-0.41738287"
       width="1.8119503"
       x="-0.40597516"
       id="filter15122-3"
       style="color-interpolation-filters:sRGB">
      <feGaussianBlur
         id="feGaussianBlur15124-6"
         stdDeviation="14.589042" />
    </filter>
    <filter
       height="1.6064001"
       y="-0.30320004"
       width="1.8367747"
       x="-0.41838735"
       id="filter15030-7"
       style="color-interpolation-filters:sRGB">
      <feGaussianBlur
         id="feGaussianBlur15032-4"
         stdDeviation="15.037294" />
    </filter>
    <filter
       height="2.9895706"
       y="-0.99478531"
       width="2.9422002"
       x="-0.97110003"
       id="filter17690-1"
       style="color-interpolation-filters:sRGB">
      <feGaussianBlur
         id="feGaussianBlur17692-7"
         stdDeviation="11.959164" />
    </filter>
    <clipPath
       id="clipPath15134-9-1"
       clipPathUnits="userSpaceOnUse">
      <path
         style="fill:none;fill-rule:evenodd;stroke:#000000;stroke-width:0.66360509px;stroke-linecap:butt;stroke-linejoin:miter;stroke-opacity:1"
         d="m 179.69849,-18.097207 c -39.54,-41.393433 -54.52196,-53.131871 -65.79704,-61.781253 -11.27508,-8.649381 -16.989854,-11.583989 -22.241242,-12.819614 -5.25141,-1.23562 -7.72266,-0.154455 -9.26718,1.235625 -1.54454,1.39008 -7.41376,8.031566 -8.18602,23.631341 -0.77227,15.599756 1.69899,32.126243 5.56031,45.25476 3.86133,13.1285221 14.209678,34.90641 18.688818,40.77562 4.479144,5.869231 5.251414,4.324701 5.251414,4.324701 0,0 2.93461,-4.170241 15.29086,-12.201811 12.35626,-8.0315479 25.0214,-15.2908479 36.14204,-19.7699879 11.12061,-4.4791401 24.55804,-8.6493811 24.55804,-8.6493811 z"
         id="path15136-7-8" />
    </clipPath>
    <filter
       height="1.571588"
       y="-0.28579402"
       width="1.4318668"
       x="-0.2159334"
       id="filter14802-7-8"
       style="color-interpolation-filters:sRGB">
      <feGaussianBlur
         id="feGaussianBlur14804-4-9"
         stdDeviation="10.41207" />
    </filter>
    <filter
       height="1.6047848"
       y="-0.30239242"
       width="1.4012105"
       x="-0.2006053"
       id="filter14270-5-4"
       style="color-interpolation-filters:sRGB">
      <feGaussianBlur
         id="feGaussianBlur14272-1-7"
         stdDeviation="12.535315" />
    </filter>
    <filter
       height="1.5516146"
       y="-0.27580729"
       width="1.552386"
       x="-0.27619299"
       id="filter14566-5-1"
       style="color-interpolation-filters:sRGB">
      <feGaussianBlur
         id="feGaussianBlur14568-7-1"
         stdDeviation="10.048233" />
    </filter>
    <filter
       height="1.6770401"
       y="-0.33852005"
       width="1.6125817"
       x="-0.30629084"
       id="filter14322-9-8"
       style="color-interpolation-filters:sRGB">
      <feGaussianBlur
         id="feGaussianBlur14324-7-4"
         stdDeviation="11.008424" />
    </filter>
    <filter
       height="1.8347658"
       y="-0.41738287"
       width="1.8119503"
       x="-0.40597516"
       id="filter15122-3-0"
       style="color-interpolation-filters:sRGB">
      <feGaussianBlur
         id="feGaussianBlur15124-6-4"
         stdDeviation="14.589042" />
    </filter>
    <filter
       height="1.6064001"
       y="-0.30320004"
       width="1.8367747"
       x="-0.41838735"
       id="filter15030-7-3"
       style="color-interpolation-filters:sRGB">
      <feGaussianBlur
         id="feGaussianBlur15032-4-0"
         stdDeviation="15.037294" />
    </filter>
    <filter
       height="2.9895706"
       y="-0.99478531"
       width="2.9422002"
       x="-0.97110003"
       id="filter17690-1-5"
       style="color-interpolation-filters:sRGB">
      <feGaussianBlur
         id="feGaussianBlur17692-7-6"
         stdDeviation="11.959164" />
    </filter>
    <clipPath
       id="clipPath15134-9-2"
       clipPathUnits="userSpaceOnUse">
      <path
         style="fill:none;fill-rule:evenodd;stroke:#000000;stroke-width:0.66360509px;stroke-linecap:butt;stroke-linejoin:miter;stroke-opacity:1"
         d="m 179.69849,-18.097207 c -39.54,-41.393433 -54.52196,-53.131871 -65.79704,-61.781253 -11.27508,-8.649381 -16.989854,-11.583989 -22.241242,-12.819614 -5.25141,-1.23562 -7.72266,-0.154455 -9.26718,1.235625 -1.54454,1.39008 -7.41376,8.031566 -8.18602,23.631341 -0.77227,15.599756 1.69899,32.126243 5.56031,45.25476 3.86133,13.1285221 14.209678,34.90641 18.688818,40.77562 4.479144,5.869231 5.251414,4.324701 5.251414,4.324701 0,0 2.93461,-4.170241 15.29086,-12.201811 12.35626,-8.0315479 25.0214,-15.2908479 36.14204,-19.7699879 11.12061,-4.4791401 24.55804,-8.6493811 24.55804,-8.6493811 z"
         id="path15136-7-0" />
    </clipPath>
    <filter
       height="1.571588"
       y="-0.28579402"
       width="1.4318668"
       x="-0.2159334"
       id="filter14802-7-9"
       style="color-interpolation-filters:sRGB">
      <feGaussianBlur
         id="feGaussianBlur14804-4-90"
         stdDeviation="10.41207" />
    </filter>
    <filter
       height="1.6047848"
       y="-0.30239242"
       width="1.4012105"
       x="-0.2006053"
       id="filter14270-5-2"
       style="color-interpolation-filters:sRGB">
      <feGaussianBlur
         id="feGaussianBlur14272-1-2"
         stdDeviation="12.535315" />
    </filter>
    <filter
       height="1.5516146"
       y="-0.27580729"
       width="1.552386"
       x="-0.27619299"
       id="filter14566-5-4"
       style="color-interpolation-filters:sRGB">
      <feGaussianBlur
         id="feGaussianBlur14568-7-16"
         stdDeviation="10.048233" />
    </filter>
    <filter
       height="1.6770401"
       y="-0.33852005"
       width="1.6125817"
       x="-0.30629084"
       id="filter14322-9-6"
       style="color-interpolation-filters:sRGB">
      <feGaussianBlur
         id="feGaussianBlur14324-7-8"
         stdDeviation="11.008424" />
    </filter>
    <filter
       height="1.8347658"
       y="-0.41738287"
       width="1.8119503"
       x="-0.40597516"
       id="filter15122-3-07"
       style="color-interpolation-filters:sRGB">
      <feGaussianBlur
         id="feGaussianBlur15124-6-7"
         stdDeviation="14.589042" />
    </filter>
    <filter
       height="1.6064001"
       y="-0.30320004"
       width="1.8367747"
       x="-0.41838735"
       id="filter15030-7-5"
       style="color-interpolation-filters:sRGB">
      <feGaussianBlur
         id="feGaussianBlur15032-4-05"
         stdDeviation="15.037294" />
    </filter>
    <filter
       height="2.9895706"
       y="-0.99478531"
       width="2.9422002"
       x="-0.97110003"
       id="filter17690-1-53"
       style="color-interpolation-filters:sRGB">
      <feGaussianBlur
         id="feGaussianBlur17692-7-0"
         stdDeviation="11.959164" />
    </filter>
    <clipPath
       id="clipPath15134-9-2-3"
       clipPathUnits="userSpaceOnUse">
      <path
         style="fill:none;fill-rule:evenodd;stroke:#000000;stroke-width:0.66360509px;stroke-linecap:butt;stroke-linejoin:miter;stroke-opacity:1"
         d="m 179.69849,-18.097207 c -39.54,-41.393433 -54.52196,-53.131871 -65.79704,-61.781253 -11.27508,-8.649381 -16.989854,-11.583989 -22.241242,-12.819614 -5.25141,-1.23562 -7.72266,-0.154455 -9.26718,1.235625 -1.54454,1.39008 -7.41376,8.031566 -8.18602,23.631341 -0.77227,15.599756 1.69899,32.126243 5.56031,45.25476 3.86133,13.1285221 14.209678,34.90641 18.688818,40.77562 4.479144,5.869231 5.251414,4.324701 5.251414,4.324701 0,0 2.93461,-4.170241 15.29086,-12.201811 12.35626,-8.0315479 25.0214,-15.2908479 36.14204,-19.7699879 11.12061,-4.4791401 24.55804,-8.6493811 24.55804,-8.6493811 z"
         id="path15136-7-0-6" />
    </clipPath>
    <filter
       height="1.571588"
       y="-0.28579402"
       width="1.4318668"
       x="-0.2159334"
       id="filter14802-7-9-2"
       style="color-interpolation-filters:sRGB">
      <feGaussianBlur
         id="feGaussianBlur14804-4-90-5"
         stdDeviation="10.41207" />
    </filter>
    <filter
       height="1.6047848"
       y="-0.30239242"
       width="1.4012105"
       x="-0.2006053"
       id="filter14270-5-2-0"
       style="color-interpolation-filters:sRGB">
      <feGaussianBlur
         id="feGaussianBlur14272-1-2-5"
         stdDeviation="12.535315" />
    </filter>
    <filter
       height="1.5516146"
       y="-0.27580729"
       width="1.552386"
       x="-0.27619299"
       id="filter14566-5-4-2"
       style="color-interpolation-filters:sRGB">
      <feGaussianBlur
         id="feGaussianBlur14568-7-16-9"
         stdDeviation="10.048233" />
    </filter>
    <filter
       height="1.6770401"
       y="-0.33852005"
       width="1.6125817"
       x="-0.30629084"
       id="filter14322-9-6-3"
       style="color-interpolation-filters:sRGB">
      <feGaussianBlur
         id="feGaussianBlur14324-7-8-4"
         stdDeviation="11.008424" />
    </filter>
    <filter
       height="1.8347658"
       y="-0.41738287"
       width="1.8119503"
       x="-0.40597516"
       id="filter15122-3-07-6"
       style="color-interpolation-filters:sRGB">
      <feGaussianBlur
         id="feGaussianBlur15124-6-7-2"
         stdDeviation="14.589042" />
    </filter>
    <filter
       height="1.6064001"
       y="-0.30320004"
       width="1.8367747"
       x="-0.41838735"
       id="filter15030-7-5-9"
       style="color-interpolation-filters:sRGB">
      <feGaussianBlur
         id="feGaussianBlur15032-4-05-1"
         stdDeviation="15.037294" />
    </filter>
    <filter
       height="2.9895706"
       y="-0.99478531"
       width="2.9422002"
       x="-0.97110003"
       id="filter17690-1-53-3"
       style="color-interpolation-filters:sRGB">
      <feGaussianBlur
         id="feGaussianBlur17692-7-0-6"
         stdDeviation="11.959164" />
    </filter>
    <clipPath
       id="clipPath15134-9-2-3-1"
       clipPathUnits="userSpaceOnUse">
      <path
         style="fill:none;fill-rule:evenodd;stroke:#000000;stroke-width:0.66360509px;stroke-linecap:butt;stroke-linejoin:miter;stroke-opacity:1"
         d="m 179.69849,-18.097207 c -39.54,-41.393433 -54.52196,-53.131871 -65.79704,-61.781253 -11.27508,-8.649381 -16.989854,-11.583989 -22.241242,-12.819614 -5.25141,-1.23562 -7.72266,-0.154455 -9.26718,1.235625 -1.54454,1.39008 -7.41376,8.031566 -8.18602,23.631341 -0.77227,15.599756 1.69899,32.126243 5.56031,45.25476 3.86133,13.1285221 14.209678,34.90641 18.688818,40.77562 4.479144,5.869231 5.251414,4.324701 5.251414,4.324701 0,0 2.93461,-4.170241 15.29086,-12.201811 12.35626,-8.0315479 25.0214,-15.2908479 36.14204,-19.7699879 11.12061,-4.4791401 24.55804,-8.6493811 24.55804,-8.6493811 z"
         id="path15136-7-0-6-8" />
    </clipPath>
    <filter
       height="1.571588"
       y="-0.28579402"
       width="1.4318668"
       x="-0.2159334"
       id="filter14802-7-9-2-1"
       style="color-interpolation-filters:sRGB">
      <feGaussianBlur
         id="feGaussianBlur14804-4-90-5-1"
         stdDeviation="10.41207" />
    </filter>
    <filter
       height="1.6047848"
       y="-0.30239242"
       width="1.4012105"
       x="-0.2006053"
       id="filter14270-5-2-0-9"
       style="color-interpolation-filters:sRGB">
      <feGaussianBlur
         id="feGaussianBlur14272-1-2-5-4"
         stdDeviation="12.535315" />
    </filter>
    <filter
       height="1.5516146"
       y="-0.27580729"
       width="1.552386"
       x="-0.27619299"
       id="filter14566-5-4-2-7"
       style="color-interpolation-filters:sRGB">
      <feGaussianBlur
         id="feGaussianBlur14568-7-16-9-3"
         stdDeviation="10.048233" />
    </filter>
    <filter
       height="1.6770401"
       y="-0.33852005"
       width="1.6125817"
       x="-0.30629084"
       id="filter14322-9-6-3-2"
       style="color-interpolation-filters:sRGB">
      <feGaussianBlur
         id="feGaussianBlur14324-7-8-4-7"
         stdDeviation="11.008424" />
    </filter>
    <filter
       height="1.8347658"
       y="-0.41738287"
       width="1.8119503"
       x="-0.40597516"
       id="filter15122-3-07-6-8"
       style="color-interpolation-filters:sRGB">
      <feGaussianBlur
         id="feGaussianBlur15124-6-7-2-4"
         stdDeviation="14.589042" />
    </filter>
    <filter
       height="1.6064001"
       y="-0.30320004"
       width="1.8367747"
       x="-0.41838735"
       id="filter15030-7-5-9-9"
       style="color-interpolation-filters:sRGB">
      <feGaussianBlur
         id="feGaussianBlur15032-4-05-1-1"
         stdDeviation="15.037294" />
    </filter>
    <filter
       height="2.9895706"
       y="-0.99478531"
       width="2.9422002"
       x="-0.97110003"
       id="filter17690-1-53-3-1"
       style="color-interpolation-filters:sRGB">
      <feGaussianBlur
         id="feGaussianBlur17692-7-0-6-7"
         stdDeviation="11.959164" />
    </filter>
    <clipPath
       id="clipPath15134-9-2-3-1-9"
       clipPathUnits="userSpaceOnUse">
      <path
         style="fill:none;fill-rule:evenodd;stroke:#000000;stroke-width:0.66360509px;stroke-linecap:butt;stroke-linejoin:miter;stroke-opacity:1"
         d="m 179.69849,-18.097207 c -39.54,-41.393433 -54.52196,-53.131871 -65.79704,-61.781253 -11.27508,-8.649381 -16.989854,-11.583989 -22.241242,-12.819614 -5.25141,-1.23562 -7.72266,-0.154455 -9.26718,1.235625 -1.54454,1.39008 -7.41376,8.031566 -8.18602,23.631341 -0.77227,15.599756 1.69899,32.126243 5.56031,45.25476 3.86133,13.1285221 14.209678,34.90641 18.688818,40.77562 4.479144,5.869231 5.251414,4.324701 5.251414,4.324701 0,0 2.93461,-4.170241 15.29086,-12.201811 12.35626,-8.0315479 25.0214,-15.2908479 36.14204,-19.7699879 11.12061,-4.4791401 24.55804,-8.6493811 24.55804,-8.6493811 z"
         id="path15136-7-0-6-8-4" />
    </clipPath>
    <filter
       height="1.571588"
       y="-0.28579402"
       width="1.4318668"
       x="-0.2159334"
       id="filter14802-7-9-2-1-7"
       style="color-interpolation-filters:sRGB">
      <feGaussianBlur
         id="feGaussianBlur14804-4-90-5-1-2"
         stdDeviation="10.41207" />
    </filter>
    <filter
       height="1.6047848"
       y="-0.30239242"
       width="1.4012105"
       x="-0.2006053"
       id="filter14270-5-2-0-9-2"
       style="color-interpolation-filters:sRGB">
      <feGaussianBlur
         id="feGaussianBlur14272-1-2-5-4-0"
         stdDeviation="12.535315" />
    </filter>
    <filter
       height="1.5516146"
       y="-0.27580729"
       width="1.552386"
       x="-0.27619299"
       id="filter14566-5-4-2-7-3"
       style="color-interpolation-filters:sRGB">
      <feGaussianBlur
         id="feGaussianBlur14568-7-16-9-3-1"
         stdDeviation="10.048233" />
    </filter>
    <filter
       height="1.6770401"
       y="-0.33852005"
       width="1.6125817"
       x="-0.30629084"
       id="filter14322-9-6-3-2-6"
       style="color-interpolation-filters:sRGB">
      <feGaussianBlur
         id="feGaussianBlur14324-7-8-4-7-3"
         stdDeviation="11.008424" />
    </filter>
    <filter
       height="1.8347658"
       y="-0.41738287"
       width="1.8119503"
       x="-0.40597516"
       id="filter15122-3-07-6-8-4"
       style="color-interpolation-filters:sRGB">
      <feGaussianBlur
         id="feGaussianBlur15124-6-7-2-4-8"
         stdDeviation="14.589042" />
    </filter>
    <filter
       height="1.6064001"
       y="-0.30320004"
       width="1.8367747"
       x="-0.41838735"
       id="filter15030-7-5-9-9-2"
       style="color-interpolation-filters:sRGB">
      <feGaussianBlur
         id="feGaussianBlur15032-4-05-1-1-3"
         stdDeviation="15.037294" />
    </filter>
    <filter
       height="2.9895706"
       y="-0.99478531"
       width="2.9422002"
       x="-0.97110003"
       id="filter17690-1-53-3-1-5"
       style="color-interpolation-filters:sRGB">
      <feGaussianBlur
         id="feGaussianBlur17692-7-0-6-7-1"
         stdDeviation="11.959164" />
    </filter>
    <clipPath
       id="clipPath15134-9-2-3-1-9-4"
       clipPathUnits="userSpaceOnUse">
      <path
         style="fill:none;fill-rule:evenodd;stroke:#000000;stroke-width:0.66360509px;stroke-linecap:butt;stroke-linejoin:miter;stroke-opacity:1"
         d="m 179.69849,-18.097207 c -39.54,-41.393433 -54.52196,-53.131871 -65.79704,-61.781253 -11.27508,-8.649381 -16.989854,-11.583989 -22.241242,-12.819614 -5.25141,-1.23562 -7.72266,-0.154455 -9.26718,1.235625 -1.54454,1.39008 -7.41376,8.031566 -8.18602,23.631341 -0.77227,15.599756 1.69899,32.126243 5.56031,45.25476 3.86133,13.1285221 14.209678,34.90641 18.688818,40.77562 4.479144,5.869231 5.251414,4.324701 5.251414,4.324701 0,0 2.93461,-4.170241 15.29086,-12.201811 12.35626,-8.0315479 25.0214,-15.2908479 36.14204,-19.7699879 11.12061,-4.4791401 24.55804,-8.6493811 24.55804,-8.6493811 z"
         id="path15136-7-0-6-8-4-7" />
    </clipPath>
    <filter
       height="1.571588"
       y="-0.28579402"
       width="1.4318668"
       x="-0.2159334"
       id="filter14802-7-9-2-1-7-0"
       style="color-interpolation-filters:sRGB">
      <feGaussianBlur
         id="feGaussianBlur14804-4-90-5-1-2-3"
         stdDeviation="10.41207" />
    </filter>
    <filter
       height="1.6047848"
       y="-0.30239242"
       width="1.4012105"
       x="-0.2006053"
       id="filter14270-5-2-0-9-2-2"
       style="color-interpolation-filters:sRGB">
      <feGaussianBlur
         id="feGaussianBlur14272-1-2-5-4-0-9"
         stdDeviation="12.535315" />
    </filter>
    <filter
       height="1.5516146"
       y="-0.27580729"
       width="1.552386"
       x="-0.27619299"
       id="filter14566-5-4-2-7-3-7"
       style="color-interpolation-filters:sRGB">
      <feGaussianBlur
         id="feGaussianBlur14568-7-16-9-3-1-6"
         stdDeviation="10.048233" />
    </filter>
    <filter
       height="1.6770401"
       y="-0.33852005"
       width="1.6125817"
       x="-0.30629084"
       id="filter14322-9-6-3-2-6-1"
       style="color-interpolation-filters:sRGB">
      <feGaussianBlur
         id="feGaussianBlur14324-7-8-4-7-3-0"
         stdDeviation="11.008424" />
    </filter>
    <filter
       height="1.8347658"
       y="-0.41738287"
       width="1.8119503"
       x="-0.40597516"
       id="filter15122-3-07-6-8-4-0"
       style="color-interpolation-filters:sRGB">
      <feGaussianBlur
         id="feGaussianBlur15124-6-7-2-4-8-8"
         stdDeviation="14.589042" />
    </filter>
    <filter
       height="1.6064001"
       y="-0.30320004"
       width="1.8367747"
       x="-0.41838735"
       id="filter15030-7-5-9-9-2-5"
       style="color-interpolation-filters:sRGB">
      <feGaussianBlur
         id="feGaussianBlur15032-4-05-1-1-3-4"
         stdDeviation="15.037294" />
    </filter>
    <filter
       height="2.9895706"
       y="-0.99478531"
       width="2.9422002"
       x="-0.97110003"
       id="filter17690-1-53-3-1-5-6"
       style="color-interpolation-filters:sRGB">
      <feGaussianBlur
         id="feGaussianBlur17692-7-0-6-7-1-8"
         stdDeviation="11.959164" />
    </filter>
    <clipPath
       id="clipPath15134-9-2-3-1-7"
       clipPathUnits="userSpaceOnUse">
      <path
         style="fill:none;fill-rule:evenodd;stroke:#000000;stroke-width:0.66360509px;stroke-linecap:butt;stroke-linejoin:miter;stroke-opacity:1"
         d="m 179.69849,-18.097207 c -39.54,-41.393433 -54.52196,-53.131871 -65.79704,-61.781253 -11.27508,-8.649381 -16.989854,-11.583989 -22.241242,-12.819614 -5.25141,-1.23562 -7.72266,-0.154455 -9.26718,1.235625 -1.54454,1.39008 -7.41376,8.031566 -8.18602,23.631341 -0.77227,15.599756 1.69899,32.126243 5.56031,45.25476 3.86133,13.1285221 14.209678,34.90641 18.688818,40.77562 4.479144,5.869231 5.251414,4.324701 5.251414,4.324701 0,0 2.93461,-4.170241 15.29086,-12.201811 12.35626,-8.0315479 25.0214,-15.2908479 36.14204,-19.7699879 11.12061,-4.4791401 24.55804,-8.6493811 24.55804,-8.6493811 z"
         id="path15136-7-0-6-8-3" />
    </clipPath>
    <filter
       height="1.571588"
       y="-0.28579402"
       width="1.4318668"
       x="-0.2159334"
       id="filter14802-7-9-2-1-8"
       style="color-interpolation-filters:sRGB">
      <feGaussianBlur
         id="feGaussianBlur14804-4-90-5-1-1"
         stdDeviation="10.41207" />
    </filter>
    <filter
       height="1.6047848"
       y="-0.30239242"
       width="1.4012105"
       x="-0.2006053"
       id="filter14270-5-2-0-9-3"
       style="color-interpolation-filters:sRGB">
      <feGaussianBlur
         id="feGaussianBlur14272-1-2-5-4-06"
         stdDeviation="12.535315" />
    </filter>
    <filter
       height="1.5516146"
       y="-0.27580729"
       width="1.552386"
       x="-0.27619299"
       id="filter14566-5-4-2-7-7"
       style="color-interpolation-filters:sRGB">
      <feGaussianBlur
         id="feGaussianBlur14568-7-16-9-3-2"
         stdDeviation="10.048233" />
    </filter>
    <filter
       height="1.6770401"
       y="-0.33852005"
       width="1.6125817"
       x="-0.30629084"
       id="filter14322-9-6-3-2-3"
       style="color-interpolation-filters:sRGB">
      <feGaussianBlur
         id="feGaussianBlur14324-7-8-4-7-5"
         stdDeviation="11.008424" />
    </filter>
    <filter
       height="1.8347658"
       y="-0.41738287"
       width="1.8119503"
       x="-0.40597516"
       id="filter15122-3-07-6-8-3"
       style="color-interpolation-filters:sRGB">
      <feGaussianBlur
         id="feGaussianBlur15124-6-7-2-4-6"
         stdDeviation="14.589042" />
    </filter>
    <filter
       height="1.6064001"
       y="-0.30320004"
       width="1.8367747"
       x="-0.41838735"
       id="filter15030-7-5-9-9-5"
       style="color-interpolation-filters:sRGB">
      <feGaussianBlur
         id="feGaussianBlur15032-4-05-1-1-31"
         stdDeviation="15.037294" />
    </filter>
    <filter
       height="2.9895706"
       y="-0.99478531"
       width="2.9422002"
       x="-0.97110003"
       id="filter17690-1-53-3-1-2"
       style="color-interpolation-filters:sRGB">
      <feGaussianBlur
         id="feGaussianBlur17692-7-0-6-7-2"
         stdDeviation="11.959164" />
    </filter>
    <clipPath
       id="clipPath15134-9-2-3-1-9-4-0"
       clipPathUnits="userSpaceOnUse">
      <path
         style="fill:none;fill-rule:evenodd;stroke:#000000;stroke-width:0.66360509px;stroke-linecap:butt;stroke-linejoin:miter;stroke-opacity:1"
         d="m 179.69849,-18.097207 c -39.54,-41.393433 -54.52196,-53.131871 -65.79704,-61.781253 -11.27508,-8.649381 -16.989854,-11.583989 -22.241242,-12.819614 -5.25141,-1.23562 -7.72266,-0.154455 -9.26718,1.235625 -1.54454,1.39008 -7.41376,8.031566 -8.18602,23.631341 -0.77227,15.599756 1.69899,32.126243 5.56031,45.25476 3.86133,13.1285221 14.209678,34.90641 18.688818,40.77562 4.479144,5.869231 5.251414,4.324701 5.251414,4.324701 0,0 2.93461,-4.170241 15.29086,-12.201811 12.35626,-8.0315479 25.0214,-15.2908479 36.14204,-19.7699879 11.12061,-4.4791401 24.55804,-8.6493811 24.55804,-8.6493811 z"
         id="path15136-7-0-6-8-4-7-3" />
    </clipPath>
    <filter
       height="1.571588"
       y="-0.28579402"
       width="1.4318668"
       x="-0.2159334"
       id="filter14802-7-9-2-1-7-0-9"
       style="color-interpolation-filters:sRGB">
      <feGaussianBlur
         id="feGaussianBlur14804-4-90-5-1-2-3-5"
         stdDeviation="10.41207" />
    </filter>
    <filter
       height="1.6047848"
       y="-0.30239242"
       width="1.4012105"
       x="-0.2006053"
       id="filter14270-5-2-0-9-2-2-6"
       style="color-interpolation-filters:sRGB">
      <feGaussianBlur
         id="feGaussianBlur14272-1-2-5-4-0-9-6"
         stdDeviation="12.535315" />
    </filter>
    <filter
       height="1.5516146"
       y="-0.27580729"
       width="1.552386"
       x="-0.27619299"
       id="filter14566-5-4-2-7-3-7-4"
       style="color-interpolation-filters:sRGB">
      <feGaussianBlur
         id="feGaussianBlur14568-7-16-9-3-1-6-0"
         stdDeviation="10.048233" />
    </filter>
    <filter
       height="1.6770401"
       y="-0.33852005"
       width="1.6125817"
       x="-0.30629084"
       id="filter14322-9-6-3-2-6-1-1"
       style="color-interpolation-filters:sRGB">
      <feGaussianBlur
         id="feGaussianBlur14324-7-8-4-7-3-0-9"
         stdDeviation="11.008424" />
    </filter>
    <filter
       height="1.8347658"
       y="-0.41738287"
       width="1.8119503"
       x="-0.40597516"
       id="filter15122-3-07-6-8-4-0-5"
       style="color-interpolation-filters:sRGB">
      <feGaussianBlur
         id="feGaussianBlur15124-6-7-2-4-8-8-7"
         stdDeviation="14.589042" />
    </filter>
    <filter
       height="1.6064001"
       y="-0.30320004"
       width="1.8367747"
       x="-0.41838735"
       id="filter15030-7-5-9-9-2-5-7"
       style="color-interpolation-filters:sRGB">
      <feGaussianBlur
         id="feGaussianBlur15032-4-05-1-1-3-4-9"
         stdDeviation="15.037294" />
    </filter>
    <filter
       height="2.9895706"
       y="-0.99478531"
       width="2.9422002"
       x="-0.97110003"
       id="filter17690-1-53-3-1-5-6-9"
       style="color-interpolation-filters:sRGB">
      <feGaussianBlur
         id="feGaussianBlur17692-7-0-6-7-1-8-9"
         stdDeviation="11.959164" />
    </filter>
    <clipPath
       id="clipPath15134-9-2-3-1-9-4-0-7"
       clipPathUnits="userSpaceOnUse">
      <path
         style="fill:none;fill-rule:evenodd;stroke:#000000;stroke-width:0.66360509px;stroke-linecap:butt;stroke-linejoin:miter;stroke-opacity:1"
         d="m 179.69849,-18.097207 c -39.54,-41.393433 -54.52196,-53.131871 -65.79704,-61.781253 -11.27508,-8.649381 -16.989854,-11.583989 -22.241242,-12.819614 -5.25141,-1.23562 -7.72266,-0.154455 -9.26718,1.235625 -1.54454,1.39008 -7.41376,8.031566 -8.18602,23.631341 -0.77227,15.599756 1.69899,32.126243 5.56031,45.25476 3.86133,13.1285221 14.209678,34.90641 18.688818,40.77562 4.479144,5.869231 5.251414,4.324701 5.251414,4.324701 0,0 2.93461,-4.170241 15.29086,-12.201811 12.35626,-8.0315479 25.0214,-15.2908479 36.14204,-19.7699879 11.12061,-4.4791401 24.55804,-8.6493811 24.55804,-8.6493811 z"
         id="path15136-7-0-6-8-4-7-3-8" />
    </clipPath>
    <filter
       height="1.571588"
       y="-0.28579402"
       width="1.4318668"
       x="-0.2159334"
       id="filter14802-7-9-2-1-7-0-9-3"
       style="color-interpolation-filters:sRGB">
      <feGaussianBlur
         id="feGaussianBlur14804-4-90-5-1-2-3-5-2"
         stdDeviation="10.41207" />
    </filter>
    <filter
       height="1.6047848"
       y="-0.30239242"
       width="1.4012105"
       x="-0.2006053"
       id="filter14270-5-2-0-9-2-2-6-6"
       style="color-interpolation-filters:sRGB">
      <feGaussianBlur
         id="feGaussianBlur14272-1-2-5-4-0-9-6-1"
         stdDeviation="12.535315" />
    </filter>
    <filter
       height="1.5516146"
       y="-0.27580729"
       width="1.552386"
       x="-0.27619299"
       id="filter14566-5-4-2-7-3-7-4-6"
       style="color-interpolation-filters:sRGB">
      <feGaussianBlur
         id="feGaussianBlur14568-7-16-9-3-1-6-0-6"
         stdDeviation="10.048233" />
    </filter>
    <filter
       height="1.6770401"
       y="-0.33852005"
       width="1.6125817"
       x="-0.30629084"
       id="filter14322-9-6-3-2-6-1-1-3"
       style="color-interpolation-filters:sRGB">
      <feGaussianBlur
         id="feGaussianBlur14324-7-8-4-7-3-0-9-7"
         stdDeviation="11.008424" />
    </filter>
    <filter
       height="1.8347658"
       y="-0.41738287"
       width="1.8119503"
       x="-0.40597516"
       id="filter15122-3-07-6-8-4-0-5-3"
       style="color-interpolation-filters:sRGB">
      <feGaussianBlur
         id="feGaussianBlur15124-6-7-2-4-8-8-7-0"
         stdDeviation="14.589042" />
    </filter>
    <filter
       height="1.6064001"
       y="-0.30320004"
       width="1.8367747"
       x="-0.41838735"
       id="filter15030-7-5-9-9-2-5-7-4"
       style="color-interpolation-filters:sRGB">
      <feGaussianBlur
         id="feGaussianBlur15032-4-05-1-1-3-4-9-2"
         stdDeviation="15.037294" />
    </filter>
    <filter
       height="2.9895706"
       y="-0.99478531"
       width="2.9422002"
       x="-0.97110003"
       id="filter17690-1-53-3-1-5-6-9-9"
       style="color-interpolation-filters:sRGB">
      <feGaussianBlur
         id="feGaussianBlur17692-7-0-6-7-1-8-9-3"
         stdDeviation="11.959164" />
    </filter>
    <clipPath
       id="clipPath15134-9-2-3-1-9-4-0-3"
       clipPathUnits="userSpaceOnUse">
      <path
         style="fill:none;fill-rule:evenodd;stroke:#000000;stroke-width:0.66360509px;stroke-linecap:butt;stroke-linejoin:miter;stroke-opacity:1"
         d="m 179.69849,-18.097207 c -39.54,-41.393433 -54.52196,-53.131871 -65.79704,-61.781253 -11.27508,-8.649381 -16.989854,-11.583989 -22.241242,-12.819614 -5.25141,-1.23562 -7.72266,-0.154455 -9.26718,1.235625 -1.54454,1.39008 -7.41376,8.031566 -8.18602,23.631341 -0.77227,15.599756 1.69899,32.126243 5.56031,45.25476 3.86133,13.1285221 14.209678,34.90641 18.688818,40.77562 4.479144,5.869231 5.251414,4.324701 5.251414,4.324701 0,0 2.93461,-4.170241 15.29086,-12.201811 12.35626,-8.0315479 25.0214,-15.2908479 36.14204,-19.7699879 11.12061,-4.4791401 24.55804,-8.6493811 24.55804,-8.6493811 z"
         id="path15136-7-0-6-8-4-7-3-5" />
    </clipPath>
    <filter
       height="1.571588"
       y="-0.28579402"
       width="1.4318668"
       x="-0.2159334"
       id="filter14802-7-9-2-1-7-0-9-6"
       style="color-interpolation-filters:sRGB">
      <feGaussianBlur
         id="feGaussianBlur14804-4-90-5-1-2-3-5-7"
         stdDeviation="10.41207" />
    </filter>
    <filter
       height="1.6047848"
       y="-0.30239242"
       width="1.4012105"
       x="-0.2006053"
       id="filter14270-5-2-0-9-2-2-6-2"
       style="color-interpolation-filters:sRGB">
      <feGaussianBlur
         id="feGaussianBlur14272-1-2-5-4-0-9-6-4"
         stdDeviation="12.535315" />
    </filter>
    <filter
       height="1.5516146"
       y="-0.27580729"
       width="1.552386"
       x="-0.27619299"
       id="filter14566-5-4-2-7-3-7-4-1"
       style="color-interpolation-filters:sRGB">
      <feGaussianBlur
         id="feGaussianBlur14568-7-16-9-3-1-6-0-4"
         stdDeviation="10.048233" />
    </filter>
    <filter
       height="1.6770401"
       y="-0.33852005"
       width="1.6125817"
       x="-0.30629084"
       id="filter14322-9-6-3-2-6-1-1-0"
       style="color-interpolation-filters:sRGB">
      <feGaussianBlur
         id="feGaussianBlur14324-7-8-4-7-3-0-9-2"
         stdDeviation="11.008424" />
    </filter>
    <filter
       height="1.8347658"
       y="-0.41738287"
       width="1.8119503"
       x="-0.40597516"
       id="filter15122-3-07-6-8-4-0-5-2"
       style="color-interpolation-filters:sRGB">
      <feGaussianBlur
         id="feGaussianBlur15124-6-7-2-4-8-8-7-8"
         stdDeviation="14.589042" />
    </filter>
    <filter
       height="1.6064001"
       y="-0.30320004"
       width="1.8367747"
       x="-0.41838735"
       id="filter15030-7-5-9-9-2-5-7-5"
       style="color-interpolation-filters:sRGB">
      <feGaussianBlur
         id="feGaussianBlur15032-4-05-1-1-3-4-9-9"
         stdDeviation="15.037294" />
    </filter>
    <filter
       height="2.9895706"
       y="-0.99478531"
       width="2.9422002"
       x="-0.97110003"
       id="filter17690-1-53-3-1-5-6-9-1"
       style="color-interpolation-filters:sRGB">
      <feGaussianBlur
         id="feGaussianBlur17692-7-0-6-7-1-8-9-8"
         stdDeviation="11.959164" />
    </filter>
    <clipPath
       id="clipPath15134-9-2-3-1-9-4-0-5"
       clipPathUnits="userSpaceOnUse">
      <path
         style="fill:none;fill-rule:evenodd;stroke:#000000;stroke-width:0.66360509px;stroke-linecap:butt;stroke-linejoin:miter;stroke-opacity:1"
         d="m 179.69849,-18.097207 c -39.54,-41.393433 -54.52196,-53.131871 -65.79704,-61.781253 -11.27508,-8.649381 -16.989854,-11.583989 -22.241242,-12.819614 -5.25141,-1.23562 -7.72266,-0.154455 -9.26718,1.235625 -1.54454,1.39008 -7.41376,8.031566 -8.18602,23.631341 -0.77227,15.599756 1.69899,32.126243 5.56031,45.25476 3.86133,13.1285221 14.209678,34.90641 18.688818,40.77562 4.479144,5.869231 5.251414,4.324701 5.251414,4.324701 0,0 2.93461,-4.170241 15.29086,-12.201811 12.35626,-8.0315479 25.0214,-15.2908479 36.14204,-19.7699879 11.12061,-4.4791401 24.55804,-8.6493811 24.55804,-8.6493811 z"
         id="path15136-7-0-6-8-4-7-3-7" />
    </clipPath>
    <filter
       height="1.571588"
       y="-0.28579402"
       width="1.4318668"
       x="-0.2159334"
       id="filter14802-7-9-2-1-7-0-9-5"
       style="color-interpolation-filters:sRGB">
      <feGaussianBlur
         id="feGaussianBlur14804-4-90-5-1-2-3-5-9"
         stdDeviation="10.41207" />
    </filter>
    <filter
       height="1.6047848"
       y="-0.30239242"
       width="1.4012105"
       x="-0.2006053"
       id="filter14270-5-2-0-9-2-2-6-22"
       style="color-interpolation-filters:sRGB">
      <feGaussianBlur
         id="feGaussianBlur14272-1-2-5-4-0-9-6-5"
         stdDeviation="12.535315" />
    </filter>
    <filter
       height="1.5516146"
       y="-0.27580729"
       width="1.552386"
       x="-0.27619299"
       id="filter14566-5-4-2-7-3-7-4-0"
       style="color-interpolation-filters:sRGB">
      <feGaussianBlur
         id="feGaussianBlur14568-7-16-9-3-1-6-0-49"
         stdDeviation="10.048233" />
    </filter>
    <filter
       height="1.6770401"
       y="-0.33852005"
       width="1.6125817"
       x="-0.30629084"
       id="filter14322-9-6-3-2-6-1-1-1"
       style="color-interpolation-filters:sRGB">
      <feGaussianBlur
         id="feGaussianBlur14324-7-8-4-7-3-0-9-8"
         stdDeviation="11.008424" />
    </filter>
    <filter
       height="1.8347658"
       y="-0.41738287"
       width="1.8119503"
       x="-0.40597516"
       id="filter15122-3-07-6-8-4-0-5-1"
       style="color-interpolation-filters:sRGB">
      <feGaussianBlur
         id="feGaussianBlur15124-6-7-2-4-8-8-7-3"
         stdDeviation="14.589042" />
    </filter>
    <filter
       height="1.6064001"
       y="-0.30320004"
       width="1.8367747"
       x="-0.41838735"
       id="filter15030-7-5-9-9-2-5-7-2"
       style="color-interpolation-filters:sRGB">
      <feGaussianBlur
         id="feGaussianBlur15032-4-05-1-1-3-4-9-1"
         stdDeviation="15.037294" />
    </filter>
    <filter
       height="2.9895706"
       y="-0.99478531"
       width="2.9422002"
       x="-0.97110003"
       id="filter17690-1-53-3-1-5-6-9-11"
       style="color-interpolation-filters:sRGB">
      <feGaussianBlur
         id="feGaussianBlur17692-7-0-6-7-1-8-9-4"
         stdDeviation="11.959164" />
    </filter>
    <clipPath
       id="clipPath15134-9-2-3-1-9-4-0-3-1"
       clipPathUnits="userSpaceOnUse">
      <path
         style="fill:none;fill-rule:evenodd;stroke:#000000;stroke-width:0.66360509px;stroke-linecap:butt;stroke-linejoin:miter;stroke-opacity:1"
         d="m 179.69849,-18.097207 c -39.54,-41.393433 -54.52196,-53.131871 -65.79704,-61.781253 -11.27508,-8.649381 -16.989854,-11.583989 -22.241242,-12.819614 -5.25141,-1.23562 -7.72266,-0.154455 -9.26718,1.235625 -1.54454,1.39008 -7.41376,8.031566 -8.18602,23.631341 -0.77227,15.599756 1.69899,32.126243 5.56031,45.25476 3.86133,13.1285221 14.209678,34.90641 18.688818,40.77562 4.479144,5.869231 5.251414,4.324701 5.251414,4.324701 0,0 2.93461,-4.170241 15.29086,-12.201811 12.35626,-8.0315479 25.0214,-15.2908479 36.14204,-19.7699879 11.12061,-4.4791401 24.55804,-8.6493811 24.55804,-8.6493811 z"
         id="path15136-7-0-6-8-4-7-3-5-7" />
    </clipPath>
    <filter
       height="1.571588"
       y="-0.28579402"
       width="1.4318668"
       x="-0.2159334"
       id="filter14802-7-9-2-1-7-0-9-6-1"
       style="color-interpolation-filters:sRGB">
      <feGaussianBlur
         id="feGaussianBlur14804-4-90-5-1-2-3-5-7-8"
         stdDeviation="10.41207" />
    </filter>
    <filter
       height="1.6047848"
       y="-0.30239242"
       width="1.4012105"
       x="-0.2006053"
       id="filter14270-5-2-0-9-2-2-6-2-7"
       style="color-interpolation-filters:sRGB">
      <feGaussianBlur
         id="feGaussianBlur14272-1-2-5-4-0-9-6-4-5"
         stdDeviation="12.535315" />
    </filter>
    <filter
       height="1.5516146"
       y="-0.27580729"
       width="1.552386"
       x="-0.27619299"
       id="filter14566-5-4-2-7-3-7-4-1-9"
       style="color-interpolation-filters:sRGB">
      <feGaussianBlur
         id="feGaussianBlur14568-7-16-9-3-1-6-0-4-8"
         stdDeviation="10.048233" />
    </filter>
    <filter
       height="1.6770401"
       y="-0.33852005"
       width="1.6125817"
       x="-0.30629084"
       id="filter14322-9-6-3-2-6-1-1-0-5"
       style="color-interpolation-filters:sRGB">
      <feGaussianBlur
         id="feGaussianBlur14324-7-8-4-7-3-0-9-2-0"
         stdDeviation="11.008424" />
    </filter>
    <filter
       height="1.8347658"
       y="-0.41738287"
       width="1.8119503"
       x="-0.40597516"
       id="filter15122-3-07-6-8-4-0-5-2-4"
       style="color-interpolation-filters:sRGB">
      <feGaussianBlur
         id="feGaussianBlur15124-6-7-2-4-8-8-7-8-7"
         stdDeviation="14.589042" />
    </filter>
    <filter
       height="1.6064001"
       y="-0.30320004"
       width="1.8367747"
       x="-0.41838735"
       id="filter15030-7-5-9-9-2-5-7-5-3"
       style="color-interpolation-filters:sRGB">
      <feGaussianBlur
         id="feGaussianBlur15032-4-05-1-1-3-4-9-9-7"
         stdDeviation="15.037294" />
    </filter>
    <filter
       height="2.9895706"
       y="-0.99478531"
       width="2.9422002"
       x="-0.97110003"
       id="filter17690-1-53-3-1-5-6-9-1-1"
       style="color-interpolation-filters:sRGB">
      <feGaussianBlur
         id="feGaussianBlur17692-7-0-6-7-1-8-9-8-8"
         stdDeviation="11.959164" />
    </filter>
    <clipPath
       id="clipPath15134-9-2-3-1-9-4-0-3-8"
       clipPathUnits="userSpaceOnUse">
      <path
         style="fill:none;fill-rule:evenodd;stroke:#000000;stroke-width:0.66360509px;stroke-linecap:butt;stroke-linejoin:miter;stroke-opacity:1"
         d="m 179.69849,-18.097207 c -39.54,-41.393433 -54.52196,-53.131871 -65.79704,-61.781253 -11.27508,-8.649381 -16.989854,-11.583989 -22.241242,-12.819614 -5.25141,-1.23562 -7.72266,-0.154455 -9.26718,1.235625 -1.54454,1.39008 -7.41376,8.031566 -8.18602,23.631341 -0.77227,15.599756 1.69899,32.126243 5.56031,45.25476 3.86133,13.1285221 14.209678,34.90641 18.688818,40.77562 4.479144,5.869231 5.251414,4.324701 5.251414,4.324701 0,0 2.93461,-4.170241 15.29086,-12.201811 12.35626,-8.0315479 25.0214,-15.2908479 36.14204,-19.7699879 11.12061,-4.4791401 24.55804,-8.6493811 24.55804,-8.6493811 z"
         id="path15136-7-0-6-8-4-7-3-5-1" />
    </clipPath>
    <filter
       height="1.571588"
       y="-0.28579402"
       width="1.4318668"
       x="-0.2159334"
       id="filter14802-7-9-2-1-7-0-9-6-8"
       style="color-interpolation-filters:sRGB">
      <feGaussianBlur
         id="feGaussianBlur14804-4-90-5-1-2-3-5-7-1"
         stdDeviation="10.41207" />
    </filter>
    <filter
       height="1.6047848"
       y="-0.30239242"
       width="1.4012105"
       x="-0.2006053"
       id="filter14270-5-2-0-9-2-2-6-2-8"
       style="color-interpolation-filters:sRGB">
      <feGaussianBlur
         id="feGaussianBlur14272-1-2-5-4-0-9-6-4-1"
         stdDeviation="12.535315" />
    </filter>
    <filter
       height="1.5516146"
       y="-0.27580729"
       width="1.552386"
       x="-0.27619299"
       id="filter14566-5-4-2-7-3-7-4-1-0"
       style="color-interpolation-filters:sRGB">
      <feGaussianBlur
         id="feGaussianBlur14568-7-16-9-3-1-6-0-4-6"
         stdDeviation="10.048233" />
    </filter>
    <filter
       height="1.6770401"
       y="-0.33852005"
       width="1.6125817"
       x="-0.30629084"
       id="filter14322-9-6-3-2-6-1-1-0-9"
       style="color-interpolation-filters:sRGB">
      <feGaussianBlur
         id="feGaussianBlur14324-7-8-4-7-3-0-9-2-1"
         stdDeviation="11.008424" />
    </filter>
    <filter
       height="1.8347658"
       y="-0.41738287"
       width="1.8119503"
       x="-0.40597516"
       id="filter15122-3-07-6-8-4-0-5-2-6"
       style="color-interpolation-filters:sRGB">
      <feGaussianBlur
         id="feGaussianBlur15124-6-7-2-4-8-8-7-8-4"
         stdDeviation="14.589042" />
    </filter>
    <filter
       height="1.6064001"
       y="-0.30320004"
       width="1.8367747"
       x="-0.41838735"
       id="filter15030-7-5-9-9-2-5-7-5-4"
       style="color-interpolation-filters:sRGB">
      <feGaussianBlur
         id="feGaussianBlur15032-4-05-1-1-3-4-9-9-2"
         stdDeviation="15.037294" />
    </filter>
    <filter
       height="2.9895706"
       y="-0.99478531"
       width="2.9422002"
       x="-0.97110003"
       id="filter17690-1-53-3-1-5-6-9-1-4"
       style="color-interpolation-filters:sRGB">
      <feGaussianBlur
         id="feGaussianBlur17692-7-0-6-7-1-8-9-8-7"
         stdDeviation="11.959164" />
    </filter>
    <clipPath
       id="clipPath15134-9-2-3-1-9-4-0-3-8-5"
       clipPathUnits="userSpaceOnUse">
      <path
         inkscape:connector-curvature="0"
         style="fill:none;fill-rule:evenodd;stroke:#000000;stroke-width:0.66360509px;stroke-linecap:butt;stroke-linejoin:miter;stroke-opacity:1"
         d="m 179.69849,-18.097207 c -39.54,-41.393433 -54.52196,-53.131871 -65.79704,-61.781253 -11.27508,-8.649381 -16.989854,-11.583989 -22.241242,-12.819614 -5.25141,-1.23562 -7.72266,-0.154455 -9.26718,1.235625 -1.54454,1.39008 -7.41376,8.031566 -8.18602,23.631341 -0.77227,15.599756 1.69899,32.126243 5.56031,45.25476 3.86133,13.1285221 14.209678,34.90641 18.688818,40.77562 4.479144,5.869231 5.251414,4.324701 5.251414,4.324701 0,0 2.93461,-4.170241 15.29086,-12.201811 12.35626,-8.0315479 25.0214,-15.2908479 36.14204,-19.7699879 11.12061,-4.4791401 24.55804,-8.6493811 24.55804,-8.6493811 z"
         id="path15136-7-0-6-8-4-7-3-5-1-6" />
    </clipPath>
    <filter
       height="1.571588"
       y="-0.28579402"
       width="1.4318668"
       x="-0.2159334"
       id="filter14802-7-9-2-1-7-0-9-6-8-3"
       style="color-interpolation-filters:sRGB">
      <feGaussianBlur
         id="feGaussianBlur14804-4-90-5-1-2-3-5-7-1-6"
         stdDeviation="10.41207" />
    </filter>
    <filter
       height="1.6047848"
       y="-0.30239242"
       width="1.4012105"
       x="-0.2006053"
       id="filter14270-5-2-0-9-2-2-6-2-8-2"
       style="color-interpolation-filters:sRGB">
      <feGaussianBlur
         id="feGaussianBlur14272-1-2-5-4-0-9-6-4-1-1"
         stdDeviation="12.535315" />
    </filter>
    <filter
       height="1.5516146"
       y="-0.27580729"
       width="1.552386"
       x="-0.27619299"
       id="filter14566-5-4-2-7-3-7-4-1-0-8"
       style="color-interpolation-filters:sRGB">
      <feGaussianBlur
         id="feGaussianBlur14568-7-16-9-3-1-6-0-4-6-4"
         stdDeviation="10.048233" />
    </filter>
    <filter
       height="1.6770401"
       y="-0.33852005"
       width="1.6125817"
       x="-0.30629084"
       id="filter14322-9-6-3-2-6-1-1-0-9-3"
       style="color-interpolation-filters:sRGB">
      <feGaussianBlur
         id="feGaussianBlur14324-7-8-4-7-3-0-9-2-1-8"
         stdDeviation="11.008424" />
    </filter>
    <filter
       height="1.8347658"
       y="-0.41738287"
       width="1.8119503"
       x="-0.40597516"
       id="filter15122-3-07-6-8-4-0-5-2-6-8"
       style="color-interpolation-filters:sRGB">
      <feGaussianBlur
         id="feGaussianBlur15124-6-7-2-4-8-8-7-8-4-8"
         stdDeviation="14.589042" />
    </filter>
    <filter
       height="1.6064001"
       y="-0.30320004"
       width="1.8367747"
       x="-0.41838735"
       id="filter15030-7-5-9-9-2-5-7-5-4-9"
       style="color-interpolation-filters:sRGB">
      <feGaussianBlur
         id="feGaussianBlur15032-4-05-1-1-3-4-9-9-2-8"
         stdDeviation="15.037294" />
    </filter>
    <filter
       height="2.9895706"
       y="-0.99478531"
       width="2.9422002"
       x="-0.97110003"
       id="filter17690-1-53-3-1-5-6-9-1-4-9"
       style="color-interpolation-filters:sRGB">
      <feGaussianBlur
         id="feGaussianBlur17692-7-0-6-7-1-8-9-8-7-5"
         stdDeviation="11.959164" />
    </filter>
  </defs>
  <g
     id="g1633"
     transform="matrix(1.0745065,0,0,1.0745065,-3.9653313,-4.826431)">
    <path
       id="path1567"
       d="m 63.27648,94.746951 1.66276,-0.906019 1.801614,-0.975437 1.936994,-1.051805 2.08279,-1.128187 2.221642,-1.204541 2.353551,-1.277442 2.471578,-1.343409 2.572246,-1.398929 2.648614,-1.437131 2.669441,-1.45101 2.672914,-1.451011 2.579189,-1.398941 2.450749,-1.332984 2.277183,-1.235789 2.027248,-1.103877 1.596802,-0.871302 1.548215,-0.836587 0.96502,-0.52764 0.53111,-0.29159 0.30895,-0.170094 -0.29159,-0.236052 -0.45127,-0.361016 -0.70121,-0.565824 -0.97544,-0.781045 -1.173304,-0.944199 -1.405882,-1.124707 -1.579448,-1.26703 -1.711359,-1.371171 -1.798142,-1.440595 -3.707366,-2.964501 -1.836325,-1.464898 -1.780786,-1.423241 -1.71136,-1.364224 -1.628045,-1.298274 -1.537794,-1.225375 -1.440596,-1.145534 -1.339928,-1.065694 -1.242731,-0.989322 -1.152477,-0.916428 -1.093464,-0.878244 -1.103879,-0.888661 -1.10735,-0.888655 -1.100407,-0.885181 -1.086521,-0.874772 -1.065695,-0.853952 -1.034453,-0.829642 -0.989325,-0.798398 -0.944198,-0.756749 -0.878242,-0.704677 -0.812289,-0.656081 -0.735918,-0.590119 -0.652608,-0.527644 -0.569296,-0.45474 -0.47557,-0.381847 -0.385316,-0.312419 -0.302006,-0.24299 -0.215221,-0.173567 -0.138853,-0.107618 -0.08679,-0.07289 -0.06596,0.242989 -0.100668,0.38532 -0.170094,0.610947 -0.246464,0.871306 -0.288117,1.06916 -0.367961,1.319102 -0.426972,1.541266 -0.479042,1.732187 -0.527639,1.895339 -0.569296,2.048071 -0.593596,2.141809 -0.621365,2.225112 -0.63178,2.266768 -0.635251,2.280658 -0.63525,2.266769 -0.624837,2.238996 -0.614423,2.18693 -0.593595,2.117503 -0.572768,2.041133 -0.548467,1.957823 -0.531113,1.950879 -0.555409,2.030719 -0.576238,2.110561 -0.593596,2.176516 -0.610951,2.228584 -0.617896,2.263303 -0.624836,2.273712 -0.617893,2.263295 -0.610953,2.225111 -0.586651,2.145281 -0.562355,2.051538 -0.524167,1.905758 -0.47557,1.739125 -0.423501,1.55169 -0.364488,1.33297 -0.302005,1.07264 -0.232579,0.89214 -0.170093,0.62135 -0.111085,0.37838 -0.07637,0.24301 0.128435,-0.0694 0.197868,-0.10759 0.308946,-0.17009 0.437386,-0.23952 0.558882,-0.302 0.690792,-0.37837 0.819231,-0.44781 0.947669,-0.51722 1.062222,-0.57973 1.173305,-0.64217 1.270501,-0.69427 1.360756,-0.74286 1.430184,-0.78452 1.492666,-0.812298 1.537792,-0.843516 1.569034,-0.860885 1.589863,-0.867828 1.593335,-0.874772 1.596805,-0.874781 1.499609,-0.822704 z m 0,0"
       style="fill:none;stroke:#080808;stroke-width:5;stroke-linecap:round;stroke-linejoin:round;stroke-miterlimit:10;stroke-dasharray:none;stroke-opacity:1"
       inkscape:connector-curvature="0" />
    <path
       sodipodi:open="true"
       d="m 60.445338,33.289856 a 6.1952639,6.1109753 0 0 1 6.159479,6.137305 6.1952639,6.1109753 0 0 1 -6.21307,6.084519 6.1952639,6.1109753 0 0 1 -6.177394,-6.11976 6.1952639,6.1109753 0 0 1 6.195258,-6.102165"
       sodipodi:end="4.712389"
       sodipodi:start="4.7181559"
       sodipodi:ry="6.1109753"
       sodipodi:rx="6.1952639"
       sodipodi:cy="39.40073"
       sodipodi:cx="60.409611"
       sodipodi:type="arc"
       id="path1498"
       style="color:#000000;clip-rule:nonzero;display:inline;overflow:visible;visibility:visible;opacity:1;isolation:auto;mix-blend-mode:normal;color-interpolation:sRGB;color-interpolation-filters:linearRGB;solid-color:#000000;solid-opacity:1;fill:#ffffff;fill-opacity:1;fill-rule:nonzero;stroke:#040404;stroke-width:1.87363648;stroke-linecap:round;stroke-miterlimit:4;stroke-dasharray:none;stroke-opacity:1;color-rendering:auto;image-rendering:auto;shape-rendering:auto;text-rendering:auto;enable-background:accumulate" />
    <path
       sodipodi:open="true"
       d="m 103.00783,67.323445 a 6.1952639,6.1109753 0 0 1 6.15948,6.137305 6.1952639,6.1109753 0 0 1 -6.21307,6.084518 6.1952639,6.1109753 0 0 1 -6.17739,-6.11976 6.1952639,6.1109753 0 0 1 6.19526,-6.102165"
       sodipodi:end="4.712389"
       sodipodi:start="4.7181559"
       sodipodi:ry="6.1109753"
       sodipodi:rx="6.1952639"
       sodipodi:cy="73.434319"
       sodipodi:cx="102.97211"
       sodipodi:type="arc"
       id="path1498-1"
       style="color:#000000;clip-rule:nonzero;display:inline;overflow:visible;visibility:visible;opacity:1;isolation:auto;mix-blend-mode:normal;color-interpolation:sRGB;color-interpolation-filters:linearRGB;solid-color:#000000;solid-opacity:1;fill:#ffffff;fill-opacity:1;fill-rule:nonzero;stroke:#040404;stroke-width:1.87363648;stroke-linecap:round;stroke-linejoin:bevel;stroke-miterlimit:4;stroke-dasharray:none;stroke-opacity:1;color-rendering:auto;image-rendering:auto;shape-rendering:auto;text-rendering:auto;enable-background:accumulate" />
    <path
       sodipodi:open="true"
       d="m 41.710627,100.67484 a 6.1952639,6.1109753 0 0 1 6.159479,6.1373 6.1952639,6.1109753 0 0 1 -6.21307,6.08452 6.1952639,6.1109753 0 0 1 -6.177393,-6.11976 6.1952639,6.1109753 0 0 1 6.195257,-6.10216"
       sodipodi:end="4.712389"
       sodipodi:start="4.7181559"
       sodipodi:ry="6.1109753"
       sodipodi:rx="6.1952639"
       sodipodi:cy="106.78571"
       sodipodi:cx="41.6749"
       sodipodi:type="arc"
       id="path1498-5"
       style="color:#000000;clip-rule:nonzero;display:inline;overflow:visible;visibility:visible;opacity:1;isolation:auto;mix-blend-mode:normal;color-interpolation:sRGB;color-interpolation-filters:linearRGB;solid-color:#000000;solid-opacity:1;fill:#ffffff;fill-opacity:1;fill-rule:nonzero;stroke:#040404;stroke-width:1.87363648;stroke-linecap:round;stroke-miterlimit:4;stroke-dasharray:none;stroke-opacity:1;color-rendering:auto;image-rendering:auto;shape-rendering:auto;text-rendering:auto;enable-background:accumulate" />
  </g>
  <text
     xml:space="preserve"
     style="font-style:normal;font-weight:normal;font-size:180px;line-height:125%;font-family:sans-serif;letter-spacing:0px;word-spacing:0px;fill:#000000;fill-opacity:1;stroke:none;stroke-width:1px;stroke-linecap:butt;stroke-linejoin:miter;stroke-opacity:1"
     x="441.1265"
     y="-226.77486"
     id="text5704"><tspan
       id="tspan5706"
       x="441.1265"
       y="-226.77486" /></text>
  <image
     width="174.73329"
     height="174.73329"
     preserveAspectRatio="none"
     xlink:href="data:image/png;base64,iVBORw0KGgoAAAANSUhEUgAAAIAAAACACAYAAADDPmHLAAAABHNCSVQICAgIfAhkiAAAAAlwSFlz AAAOxAAADsQBlSsOGwAAABl0RVh0U29mdHdhcmUAd3d3Lmlua3NjYXBlLm9yZ5vuPBoAABznSURB VHic7Z178G1led8/z/uutX+Xcw6Hc7goBERRjBdACSgSowEj4A3rYExstHVG45jU2lRTpmOtw5nJ NN7ayUWdNhPHZJxkUjWpJIy15RjApFWwohW0oWiwo4DcFML1t9d63+fpH8/z7r2Pmo6pwG//yP6e eedda+3Lb6/1fN/nvtaBFVZYYYUVVlhhhRVWWGGFFVZYYYUVVlhhhRVWWGGFFVZYYYUVVlhhhRVW WGGFFVZYYYUVdjxku3/A3wnGLuCINdiYwneB7yDodv+snYydQQDjiJdywa9N6M/fYH0/WL/F1tYW D969wfoNd3L7x6/hs5+8T7h9u3/qTsPSE2C37T76XM6/bC97n1EoVApKwVAMAwxDeYD77l5j8vmv cf07viI3fmG7f/dOwXITwNh4ORcePIw9zx0ZKCH8SkWpEAQARYCEUBmnPfnqW/nm2z8n1392e09g +bHUBHiJvfy9e9l70cjAyIhrgJFKxahYCB4MwcgICehIGGXYYPPPPst/edNNwne390yWF0tLgBPs x5/wTE75ciLtKYyzf0pBqVQKTfCHEsDoSHQkehJQ74B68SVc9R/izSssYGkJ8Ap71Z+AXDjMVr8T wMIPqFRAmat/IyFkhC5GHyToEd1k/apbuf7Vl8kt39rmU1sqLCUBjrQTjnkWp39NYNfAlIGBEiZA wwy4E+h+QCNAMwE9MtMAkxjrdPTIXRPkzR+S//ZH23yKS4O03T/gB+H5/NSvCmnXgLt+AyNT3BNo +mA4ZN//NaIMoTHacIMxYtR9oB/5F/aiPzrL2Nju81wGLJ8GMOQ8LrzRsMdP2WI4ROwjRg0/oIQT uGgCoMOdwMnCWCOzRmaDjnUym/Tsor9+i9sv/E35yl9t8xlvK5ZOAxzLqU+u2HFDrN3vHfNMQHMF NaKDGvttLmEyPGS0hYGT6Cl72H/1u+2Fv7zd57ydWDoCPIczXqNIV1BGNASvM6G3LMCcCB4UFhQN Usz/6YwUFtuLRMjIHqG+/9/byz5ywJhs97lvB5aOAArnFIw2KiwIvx1XFEKMGqJuWqEda4RwZ7FF DY0kXkIwgKxM/9HjeNFV77fjj93Oc98OLB0B7uaBJxUsAr45CXzYIcODQEIDtORwSxCzkCqGljKW yBlYfDLNMol22mM4+X9eYue/cHvOfHuwXASwp+/fYtxXkZnQC1CR2TwnQxO+UEOsjRBN5MBM+OAe rw9bmP2TyZ3Jo3q49KCdd8BsCR3khwFLRYCzOPUUoV8rzAWv3zfS7HidibAJ3uOBmXIPCDKTZiNB WpjnQxHyembyzqt5+cc+9vcgVFwqAhzDMU+ZCz7NxvfuW6R9bLbt4rNDxJtm67sli5v4Gx0OTSDN vyVjSbCfPYmXX/UFO+GYbbkYjxCWigAdkxOUTCUdMpSMkUP4+ftIAN2C+ObrWUK0PoQUsxxyVBao wQKllIyduounX3ODPefMbbwsDyuWigBGd5ySWRxGh9EtbGeIfWajia0DcgjejxOiXtQQEgagaYJG mfYJsbl/kJFjOjv84Lfs/F94xC/II4ClIkBBjqwLgv9BRJiPPCNDGxL7i1qiiTaRSSQS+RANkBoJ TBCDHMJP5j5BMsjkPcn4vdvqyx51zuFSEcDIGy7wDqXD6GP4NrFNbDM71iNMmJuCuRZIURpq2sIN QRSMrSPjQ0hkcc3QDEc2QcwQqwgySTK+8y596Ueu8B/xqMBSEaAgkyb8QwkwHzDB6EmswexYMw1O BKGPYvAk6oI+chSKk2WSZUQSWOiD2E5xSRb7DEQkzAIJxteeXl980IzN7btSDx2WigBKP9GZsCcL Ql8DJrMhIXxYC2F7yUeYkGM7LRBBWoHYvEjcrH22TCYj5qu9XYxmDmYkUA9AzTSCzPHs+8tLrr7H nnykmYmZ7VizsFSqrJI7F/q822/uorWuv4xRcHVe47V5RdDQ8O7bJxJi8wgg09GFN2Dgq14yyb4/ P4ApYp5VSOZupllkE+XBk/t6/P+YllN/Zm3t2m80EojIjuo6WioCCBP1lX9oUHaon17D2fMcYKIP l6+licKJi28QY+74SYv450FhIpHM/3pT90k9p9jCRLP4Mou8ohmYAvp4TfuvHsdnn9v3n/9yvLaj iLBUBEhMRi/KzZM4LuwxXLMSq95zhf6uxbygxro2d+po1GkUyKDz/UaAJvxkICFtMcGo/ilrv8UJ BQbmVYeEHZls/TNMz30lawf/vJ2LmclOIMFS+QDCpLgGmOD2fR23/+vAOnLI2IhjawhrpDgOa2Q2 3ScwbwVpbSHJerKskcVbRcQmJHqSdYh1mGXQhJiHnmIZLINkRMFUMDNf/ABWXROYHVb1/j+tD57/ ysXz2Qm+wZJpgLXRBd7WbgeUWPleG2zlIJmZAM8cQI1gz81AMiMJsxUsBiIJUQmPP1azzdPCmJeY TJUkFQyvMCogGVPDBJIIpriWsEpYiE3s3j+o91+wJ++69PfbOS27JlgqAmQm97kGaPa+xNyFsAte 8xuZl4WcEHle1nUCSCRzTNyuY2TzWD+pdxAnEUTBVbqGUQgSVECaSQCzEUiIJqoVOnGXoJkEM0NM 19Bv/47e+8Kj0p5Pv6+d1zKTYKkI0LH+3bkGqMhM8N4DNK8P9hArP1GiIuC1/azmwseF1yoCGRBt ZeEUq9/3mqcvKFjB131CbXRKmWCmmIBpJZFQNbK018yJYgZKj971b/Su8w9L+/7rO7fjOv5dsFQE EPo7ieTNoqq3BZU/V/0K5oTI4lFAZ0oWI5mbgU48tYsaYu74ZQvv3oQs7m62cM9QzDysnNUMbGhW AtMBpI/ac5CpVsyZAUEEMzqxO96ut5+7Lx198J/C8mqBpSIATO5wDeA2HauIqKdiRSMGL56jF53Z /3mx2GbaIGOzVO48Goi8QAs0Q2CeA5iHlaajr2yKJ4NEqKr+moFSyRZZBxOSqWuTam4WVDEjid7+ S3rzuV36sYO/tI0X9f+JpSKA0t2ETYirSevbkyADVJL0UaTRORFMSVYjF2Cx8l2wHUZWNyoudE8l JbOw/776NfqJ1CqtUIwJ1bxfAAHVAbFGBNcYYtmVgamnlVWxGiZBSdTb3qg3njNJJ579BjNbuvzA UhHgRqbXwXqsekXEMKuRkq0Rq+uCefBCTYqaYdMAWaNbwIxskIRw/KAzIVlrAom/gyLavrOgljFz vdJZApu6yrcK0mFagT5Mi0ViyAlDFfc1zPzt1YR6x+v431dscu1XfwHvZlsaLBUBvoR+40R6xUgi 8349wVcbTd2br3yxefLHNYJFckhnws+IE0KhkyZ8Q6q3kCZr71fQESfBiFUBSZilUPO4UM17Dk0N tTz7PVKTa4G4a32mBYpBNdF626vkScOG2dkXilxZtvdKz7FUBEBeck+vVw4Duh56lTaLtFBtgQjR KeARgOcAchAhRwSQrGkEEHVNIOJ5guyhGzSH0jrMijuhlsBSOHhgqqhZhH3hj5hhtYJl1woms45V 1wIeTkrR4NWdF3D10Z+0K3ipnMNSkGC5CAAcbpv33c643spB7moZpooIM8GjGrF+pIPDERNrx6PP T93T78zoDPf8tZkEX70ZxbQECQbUostIvQ7gDmEkhExQ9Qxg0opp57/NEqYJqYAlGKsni6r/VorB qFi99TzymZfZFVeftwwkWD4CsH7r7caR875eX7GE8FvGzkngr4mWsP+RAMJXqnfzGKKL3n5b/RoV v4pYJVuHqBeaxEZMZWbXVf0zpopiSJ2AVtQqSQuqnf8NLVgRUAMVpADVfyfFsGLIqFBuO4fJmZfb FVe/YLtJsHQE2GPrNwp6sgs6JGYwexiYzft8XdBuAnxmlgzKbb+tfGvaQGdFHzEjWyWZgXq6GYvW MhXMsjt42pI8sZq1x2rBasWsd1VfCqIZq9W1QLUYuOBrdfMwqic4H7j5eaw/+3K74vPbSoKlI0Bv /VeN/uWzWGlho5FididAVOQkcrItI9fSu2LzeD+pa4BsRNhos3DQtJAsg3XA6MJvGkDVIzw1VJWs FdMaBCigBapAbSZAXAs0TVANKRZ3uagToAKlwgM3PY/7zzhoB75wrhzYHhIsHQGmkq9COxbvXPd0 u4UZENTCaxcBrX68OV0KKXkyJoUZcPW/QADVecFZlWRdZBULqDt/Ysm3FV/JVkEVrRXKSNIOao/V EWqPlkKugIbwR5wYCgyKVfXIo5mBpiEeuOVsjjvjMjvwhfO2gwRLR4Ar7hk/s3dXr+7Ee57dnQBf hbbQqoWCSBf+orqXj3kIpnONkZomiBRuauFfpIAlEkliXi3EUoRzBrV60qeGCagVKcW9/lqwscO0 IKXDSuep4ZLc/nv5wucxTEkTfglTUA3uv/kc9p9+0A5c84hrgqXqBwC4a/8T/2afTe7Fekw7YALW h61tXcATTL1fULUPmxyvaw86QWJbtEd0Qqo9YjHieNKeZBPft4l/jgmi0Xuoa5hNoEyw2mOlh9Jh OoGxR4cccwdDxoaETRNsCbblM1OwLWAq8KD5vGWwpT6mClsV7rz5bDZPP2hnP7KLcuk0AMBR9N+8 U8spJm6HZx1ZhCdgcd9vhH6eifPPmuqsUIPOX7co24p59w+RL/CGz+SRRXj9ZjLL66OebLJaXNWP E6SO6NiRijuDjAmGDDVBSciYoAg2ikcDo38fY/MFbL76NfYVeODmsznn9MuMa86TKx8ZTbCUBDhM +2vNOMVMcDPAjASKx/iKYZJRtSjOGaoGllAzNDJ3QISBYTpaYokU6V2P4VviR8x7BGTm9fdoqeQ6 wWqJUG8CdYDSwzjC0GE1+1wKVrILfRT3I0bCL0hQ66FkaCRo0cbtN5/Dc8/4pB31hZfIxx/+tPHS mQCALPlTphkfno41zahm0M5n69Dq79Ga58e0A+1m21b9uFnnJsX8M7LwPh+97+v8vVZ7LMwF2mPN zpcOG3qk9DD22NjD0MGQYJp9bHUwTfCgwFYOcyDzeQpsAQOxbT6mBrd9+zwe96xL7cDDL5+l1ACX 3zv907U1dwS9ZyPRdLxGakCj1KszcxD5F1UvHWnL26sv5JbDj5VvWFT0ElBjFYZDqZ70cacvYv7S QZ1gY8HKSKo9Nrj9T2OHjh156KAUmGasdshQwtlTKMmd01E9Uhhlrvrbww5mRSWF2259MeNZlxif e0XEEg8LllID3HH00fc9RvN3TNNMC6gmtCbMMmqxbwnV7NuaURVUM7VmaMdDO5j552v176s1Y9bB 7LPxd2qG+DzaYTXCvdIHCTps7GDsYexgCA0w7aGsuSYoHUzdMWSafW5jmmAr+TyIj2YuprhGGIDB 4NZbXsYbz/yoPYxPc1tKAgAcK91XNJIrWiVMQabOMnQShHDBNuE7GYSigmqiLhLBQvhBiFqFWhNW E1ZzDCeEFd+nJLfpxYVug6v/OrhDyNghY4+MHbbVYdMeGyYw9DBOggjd3DSMHYxBhDE7AaZBhLJA igEYRbjjjlfyi8//3YfrOi8tATYsXWJ1LnytMhtWF4QfPkKtMtMStQ3N1JooMVzgQilBmppn71eN uSY0hG4lud0fO3TMLrAxVnhb9cME3fKZcQLDmh8fe5hOoHrIyBBjuvAdQ9vOC4KXuRZw51G49bbX 2+ue/zsPx3VeWgJ8Ue///WRJF0ng1bm22oMIGqtYE6UKRRPVXLgubAkSCLVmSpiTsYq/vwq1+NAq LvwajuXow8bk8f/YoaEBbDongYxr2HTNBT5OkCb8oc2TucloZqJpgrI4p/ANUmgDYl+EO77zi/b6 F733ob7OS0uArx9xxD0nILdZrHhbIIGqp2lr0woqs9WtigtUhbEmSiNGFcYC45gYi2uB7x01Vr4O 4mNM2JixWaKnQ8YJMu1J4wTZmmCDC96mE2RYQ7YmsLUB4zqMay78YQ3GdaQRoazFPHEtUPogQYxF ErS6QkmJW25/m732RQceyuu8tAQAOE7SZ7xM70K3mQnwWoqpoBVqkEIXVvtYhDJCbdslMZREKb4/ jMI4hoYoiTom6pAoo+9rydg0Y9OEDRmdZmwaNn6rhwd9dcvWmo9hHabrMGzAbHvdiTB1AlDWoa67 qShrLvi65tqg9rHvjuacAEGCmsBy5s6732E//7K3PVTXeCnDwIYHtnifVXm1mQdCJoLIodlAbcU1 FVIViimdClWhmDCot4b16ic7GPQmdKaMBj2JQStZhaRCrkJXfQVqSeiQ0SGThx6bVpgW2OqxscKg yKjYVEkl2r8Gw4qQ5ivXh+YoDs0zhlgPtXhBK9rKZ6Vna00QCSR7fQKBruv4m/vebT//ikE+eskH ftRrvPT3rj31r8e7v1XZS7thWCzu6IkHxETFr1NjYsJEYU2NdYW1AhvAhiqbamwa7IonO+w2Y8OU DVM2zdhQZVIr62pMSmEyjkyGSj+O9MNAN4x0wxZ5a0q3tYWMU7rpFt3wIHmYkuqD5OEBpA5I3SIV f4/ULaROERuROoU6IjoidYA6Mru/sJGgJS0gimDJSZB66DrIE5isQeqmTNZ/WT7xid/7Ua7vUmsA gCdlueKbg70i+sG8PTsat9WMGg8FrArVhFo97zJUr/t3KvSWGFTpTOhN6dUYgGyJTvHXVMiaqKV6 WDhmbLQwAR22VZGhn2Xr0giy6K1Huldq52ng4n6KFIkE0+Cq3UbQYa4BtPqxGQki+xsFzxkJLDKX klyD5H6NPfsuttPPvlSuufLO/9/ru/QE6MjvtbG+Itr0SUkOyfylKBZZFaoapUI2YazQqTBqmAF1 EvQIfY3HSplRNBxGTXQVajFqMawkdHDhM1WY9ugW5C31PP5UYRrNHqNgY/QDVrfZUrJ3CtMhNg3h 9955bBH6UWK/j+061wgwr4ClBOaJKY49/ruc+IQr2LfvA3LRW6/80a/vkuM/ncBVz/hf3Pm1UY4E r620Ik/Cvf5oFEaiJ9+bPmGoiVSNrN4a3lliNF/xExOK2mxbKx5eloQOhhbBBvPs3LRDpoJMDRkM tiANhkyBIqQhuc3XBE3wGs6cTb1EzRRsQHRwe65+5zM2gJUY8xtgaIUrAY459m6e+MTL2L/vN+Vf XfS5h/L6Lj0BAE7q8kdvuI83AyCGiN+c6Td2RqmwRtt3haJGLu4blGqMxR8fVUwZqzFqZjBlYjDR FFrAPMIooZEHhSEjI1HHB5n2PkfCRgYhjQkZYtVbqOfSudAtnmhmA2Id2CQE3sc8xusjSJDA68Ow f+8DnHTif+fYx75H3vErf/63XZsfFUvvBAI874t21LVb3DZtbfnC/Jl+UerN6iq/q0ZXYVKNSYF1 g7VqbChsVGOXwaYZuxT2mLGrKrvV2KXGZqlsjspmMTaKsrZV2Rgq/ZbSDyP9VqEbKt10JE8LeRxI 40gqI904IDaQ6ojolGRTxApiA8jgZgB/DzZFZs7DQLQMwe61kaedcBWPOfy35OK3/MkjcW13hAb4 i9O485wv8tXP3svJ4H5R8wHEhFQJh9CQAlJhLJBVKNVI1W8J62v0YlSvFhbzHEJVKMUiBSxYVZgK 4rJCpiBbnZdyXZ6x8gUZO3KofakJsW5m+73BtPM7ionZ+pjbF02MJz/2/3DC/g+zdc+/k99424OP 5LXdEQQQEfvZL9m/ZuQSxIXdHt5kraGiOhlqhVTM08DVyFXI1SjV7/Ut1R3FmfC91xPRDGMNj15C PilsviBDIk+FPBXY8i6gVJOXfCtYSaRQ91R/voGzpfdVT48wdeHLBB6zdh9P2/efOXz3xXLgguu3 69ruCAIAfPyZ/Nmpf8F3rr+fI0CiQTQe5qTRtFvd+avFTWpVca8+UsSqkTWsFnPkXYr3EXg7l5FK Ik01CCDkLSVNBZsCY3KHcMzIWLz9yzJSBsBvLxPtERn8/gKJJ5qmeLbACZu3yTP2vZ/uinfJgX/y sNX5f1jsGAIAPHWTD1x/FxcDfrtWiwAMtBii4sKvLmStMku0VVWqCqXizp4ZtRI1BrwUXDRat4w0 iId50xQOIHSDkKaVPIAMClVImpAS6n/2X1m0h1h3SCrQ98bJR94gj+3eLr9x5ie4dPuu4fdiRziB DU//mE3uXuPe27biP3hSt/cSYV+ukIrPfYGuwFr1sV5hl8JmCQdQ4TCFPdU4rAp7irJnhD0Fdg3G 5ggbg7GxZawNRjf1OU2VSVFSUdKgpFpJNW4vQxEp7vxRYE+p6Vkbn5aju7fynhOuX7ZnA8AO0wBf /TkZLrjcLv3UPbzSNPIksehM/SYdggRaQ7W33MrsPTJrxDTFnxpWIRVxAo2urdPgWqBl+1Jk+1Lk 96VEx696RCImHoMiMMnGabuvzo9Nr+W3j74RWLoHQzTsKAIA3H8/v7JeufDB0W8IlhCklZjHBYFX T7Rp9NxphNmmfttWqpE8MpARpBi5CFKENEQuYdQghSBFSTWTqocSSeNxcwgpGanvLJ2Zrk0n2T/m 4n3Xbfe1+mGw4whw+QVy8zmX2Jf/8mae2QSf4s4tFhJqhAaQ6sNCO0iNFasyu48/VV+8EhW8PCop wvRcE3lUf8yMJlIFq+pPG8cfLUsWulP6v9KT7A3pfRtX0zpYA8u6+mEHEgBgf8dFTDnYsn8W3j+V 2S1ZjRBSfeVLaAuKv7dlDSXUeCog1UjFkCqk4uEkI3GfoHmuH/EHUIqnavNT0y2cyuvTu9cORnPF jhE+7DAncBE/8WG76bpv82NW58JNBVfbBfpwBGdOYHEncE+FPeZO4F6Fw6rPh1fYXX1/12hsFtgo +LNLR/MC0uhl56RGdwQP5jP49fXf7n49ftL3CXrZhQ87VAMAnLjJW68b+FjSuXpvat/ajZkLaj9F xJDMyZIjcuh0rhG6pjWKawApseo1Hg2bQHq0PzN9avNEeQ3/knv5AYKHnSF82MEaAOD037Jbrr2J Y5qdl+oaIBcXZl9gI0LAjQqbCrsVDjMPAfca7K0+H1ZDOyjsLrBZvaFkTWFSvL6w+ePy9f4kfm7z XXyZHS74hh2rAQCeuJd/ft1f81EJ73+WE4hMYGp5GZ1rgRRaIBmzsnEL5dp23Ds6Wx35KLlv8xn8 6t5/y9/an7/TBN+wozUAwOm/Zrd85ZscQwg8RyKoKzApsGGwrr6iN9Xtf1v9e5oWwDXA7nh9s/rn NsAOP4NP97t55ZHv4b7Fv7tTBf69WOqu4B8GJx3OW2WAHAkcGTxtmyJ50/ZlYT8Vj/tzCxP98YCH aID1x/HtPS/gBcd8kPOPeq/cKyK2OLb7vB8q7HgC/Me3yEdPeSzfpgl9UfCjj1QiwxdDFvov0hjh YJiKtEY5/Ew+9PE/5rjj3y1XPpqE/YOwo32AhhP3c9H1N/AHEra/2f+ksU34AIS9JxpKiHRyiPjw J/O1o0/iJU8/IF/ftpN5hLHjfYCG5/8z+8a1N/B4iSigrzCpbv83zKOAPeJ+wGHAHnzeC+xbQ594 Gh964QflTdt7Fo88drwJaDh+P/+wV6yFgS0hJNFtlSLGb+q+RQj7j+eOx/00P/X3UfjwKCLAHx6Q q37yqfxlbkJuZqAu2PhIDFkFAXvKc/n4LXdz7IvfJQ9pp+1OwqPCB2hIhQuPPoyb7rqT9axzwXu5 dm779x7BcPpZvOZ175U/3u7fvN141GgAgE98UL7z7FN5c2cLiZ+W7IkU8HFP4K7TfobTVsJ3PGqc wEW8+o12yTWf5x90Go6gwZrBs8/g2pOexFlvOiAPbPdvXOFhhcmrXmNfOvlks594mtlznmJ20evt yu3+VcuIR5UJmEOMgZ982lO4LgFnPY/L3/dhOXu7f9UK24C3vMEuYPYfv62wwgorrLDCCiussMIK K6ywwgorrLDCCiussMIKK6ywwgorrLDCCiussMIKK6ywwgorrLDCoxD/F07maecCXSQAAAAAAElF TkSuQmCC "
     id="image504"
     x="-33.308624"
     y="-23.424658" />
  <path
     sodipodi:type="inkscape:offset"
     inkscape:radius="0"
     inkscape:original="M 29.587891 4.1914062 C 25.927121 4.004843 23.217638 5.230816 21.527344 6.7519531 C 19.240309 8.8102842 13.227453 16.118241 12.433594 32.154297 C 11.655328 47.875601 14.12097 64.324187 18.001953 77.519531 C 19.975664 84.230178 23.488364 92.832212 27.087891 100.58594 C 30.685354 108.33522 34.20565 115.04414 36.828125 118.48047 C 39.144491 121.51572 40.629698 122.98075 42.275391 123.74023 C 43.201719 124.16774 44.382292 124.37755 45.544922 123.94336 C 46.312217 123.65682 46.884433 123.09462 47.136719 122.76758 C 47.175702 122.72076 47.222091 122.68021 47.257812 122.63086 A 2.1207977 2.1207977 0 0 0 47.291016 122.58203 C 47.291016 122.58203 47.638718 122.01648 49.724609 120.14258 C 51.800286 118.27786 55.407972 115.38902 61.333984 111.53711 C 73.320325 103.746 85.588374 96.732966 96.126953 92.488281 C 106.80696 88.186598 119.88574 84.119916 119.89453 84.117188 C 121.00933 83.772924 121.81446 82.936982 122.10938 81.802734 C 122.40319 80.672651 122.11717 79.551681 121.30469 78.701172 C 82.549208 38.129039 67.611936 26.402672 56.556641 17.921875 C 45.384738 9.3516354 39.305209 6.13913 33.550781 4.7851562 C 32.104947 4.444962 30.792109 4.2527766 29.587891 4.1914062 z "
     style="fill:#eeeeee;fill-opacity:0.13333334;fill-rule:evenodd;stroke:#848484;stroke-width:7;stroke-linecap:butt;stroke-linejoin:miter;stroke-miterlimit:4;stroke-dasharray:none;stroke-opacity:1"
     id="path6190-6-0-6-4-5-3-3-1-1-4-9-7"
     d="m 29.587891,4.1914062 c -3.66077,-0.1865632 -6.370253,1.0394098 -8.060547,2.5605469 -2.287035,2.0583311 -8.299891,9.3662879 -9.09375,25.4023439 -0.778266,15.721304 1.687376,32.16989 5.568359,45.365234 1.973711,6.710647 5.486411,15.312681 9.085938,23.066409 3.597463,7.74928 7.117759,14.4582 9.740234,17.89453 2.316366,3.03525 3.801573,4.50028 5.447266,5.25976 0.926328,0.42751 2.106901,0.63732 3.269531,0.20313 0.767295,-0.28654 1.339511,-0.84874 1.591797,-1.17578 0.03898,-0.0468 0.08537,-0.0874 0.121093,-0.13672 a 2.1207977,2.1207977 0 0 0 0.0332,-0.0488 c 0,0 0.347702,-0.56555 2.433593,-2.43945 2.075677,-1.86472 5.683363,-4.75356 11.609375,-8.60547 11.986341,-7.79111 24.25439,-14.804144 34.792969,-19.048829 10.680007,-4.301683 23.758787,-8.368365 23.767577,-8.371093 1.1148,-0.344264 1.91993,-1.180206 2.21485,-2.314454 0.29381,-1.130083 0.008,-2.251053 -0.80469,-3.101562 C 82.549208,38.129039 67.611936,26.402672 56.556641,17.921875 45.384738,9.3516354 39.305209,6.13913 33.550781,4.7851562 32.104947,4.444962 30.792109,4.2527766 29.587891,4.1914062 Z"
     transform="translate(-0.10850959,-0.0720178)" />
  <path
     sodipodi:type="inkscape:offset"
     inkscape:radius="2.6216357"
     inkscape:original="M 29.480469 6.3085938 C 26.307398 6.1468851 24.263749 7.1416312 22.945312 8.328125 C 21.154777 9.9396062 15.319962 16.722221 14.550781 32.259766 C 13.787165 47.685145 16.222626 63.952632 20.037109 76.921875 C 21.956272 83.447057 25.443194 92.006416 29.011719 99.693359 C 32.580001 107.37978 36.165196 114.11606 38.513672 117.19336 C 40.752318 120.12677 42.078626 121.31352 43.164062 121.81445 C 43.725834 122.07371 44.299541 122.14495 44.802734 121.95703 C 45.157137 121.82468 45.346016 121.62626 45.464844 121.4707 A 0.57701176 0.57701176 0 0 0 45.539062 121.38672 C 45.539062 121.38672 46.130886 120.51908 48.306641 118.56445 C 50.481124 116.61097 54.175589 113.66117 60.177734 109.75977 C 72.229995 101.92581 84.575316 94.854815 95.333984 90.521484 C 106.14277 86.167929 119.2666 82.092706 119.26953 82.091797 C 119.64852 81.97476 119.95683 81.653416 120.05664 81.269531 C 120.15645 80.885647 120.04547 80.452828 119.77148 80.166016 C 81.062688 39.642757 66.304951 28.072062 55.265625 19.603516 C 44.18477 11.103121 38.420338 8.1098088 33.064453 6.8496094 C 31.723245 6.534033 30.536476 6.3624109 29.480469 6.3085938 z "
     style="fill:none;fill-opacity:1;fill-rule:evenodd;stroke:#050000;stroke-width:7;stroke-linecap:butt;stroke-linejoin:miter;stroke-miterlimit:4;stroke-dasharray:none;stroke-opacity:1"
     id="path6190-6-0-6-4-5-3-3-1-1-4-9-7-4"
     d="m 29.613281,3.6894531 c -3.776003,-0.1924358 -6.643719,1.0892468 -8.421875,2.6894531 -2.404347,2.1639124 -8.460075,9.5981098 -9.259765,25.7519528 -0.781727,15.791225 1.693147,32.282483 5.589843,45.53125 1.9866,6.754468 5.50643,15.365264 9.113282,23.134771 3.604358,7.76413 7.107707,14.46516 9.794922,17.98632 2.334729,3.05932 3.858649,4.59153 5.636718,5.41211 1.012466,0.46726 2.335856,0.70918 3.654297,0.2168 0.860603,-0.32139 1.51617,-0.96128 1.802735,-1.33008 0.04494,-0.0542 0.0974,-0.10118 0.138671,-0.1582 a 2.6218978,2.6218978 0 0 0 0.04297,-0.0605 c 0,0 0.288858,-0.49283 2.353516,-2.34766 2.05233,-1.84374 5.640804,-4.71837 11.548828,-8.55859 11.970765,-7.78099 24.218501,-14.780166 34.705078,-19.003905 10.64975,-4.2895 23.72072,-8.352441 23.73047,-8.355469 l 0.004,-0.002 c 1.28634,-0.398774 2.20626,-1.355969 2.54687,-2.666015 0.33966,-1.306395 0.0139,-2.59052 -0.92578,-3.574219 C 82.90146,37.771788 67.920397,26.007129 56.861328,17.523438 45.667913,8.936695 39.512658,5.6730055 33.664062,4.296875 32.193507,3.950864 30.852519,3.7526082 29.613281,3.6894531 Z"
     transform="translate(-0.10850958,-0.07201322)" />
  <g
     aria-label="e"
     style="font-style:normal;font-weight:normal;font-size:171.94830322px;line-height:321.27767944px;font-family:sans-serif;letter-spacing:0px;word-spacing:0px;fill:#040404;fill-opacity:1;stroke:none;stroke-width:12.85110855px;stroke-linecap:butt;stroke-linejoin:miter;stroke-opacity:1"
     id="text1637"
     transform="matrix(0.92983869,0,0,0.92983869,3.6480752,4.8925062)">
    <path
       id="path1652"
       style="font-style:normal;font-variant:normal;font-weight:normal;font-stretch:normal;font-size:171.94830322px;font-family:Elsie;-inkscape-font-specification:Elsie;fill:#040404;fill-opacity:1;stroke-width:11.06792927px"
       d="m 55.475637,32.709923 q 11.106698,0 18.511163,4.738858 7.552554,4.738858 7.552554,14.216572 0,14.660841 -16.734091,18.066895 -8.44109,1.628982 -21.02868,1.628982 h -6.960197 v 4.29459 q 0,11.995234 4.886947,19.547788 5.035036,7.404472 14.512751,7.404472 9.625804,0 14.957019,-5.6274 5.479304,-5.627394 7.700644,-14.512752 l 2.665607,0.296179 q -2.369428,10.810519 -9.625804,17.474533 -7.108287,6.51594 -18.066895,6.51594 -15.401287,0 -23.398109,-10.070079 -7.996823,-10.218162 -7.996823,-26.952253 0,-16.734091 8.58918,-26.804163 8.58918,-10.218162 24.434734,-10.218162 z m -18.659251,35.9857 h 5.183125 q 11.995233,0 16.734091,-2.369429 4.886947,-2.369429 6.664018,-5.775483 1.777072,-3.554143 1.777072,-9.921983 0,-6.367839 -3.257965,-10.810518 -3.109875,-4.590769 -9.625804,-4.590769 -6.515929,0 -10.662429,4.738858 -3.998411,4.590768 -5.479304,10.810518 -1.332804,6.219751 -1.332804,13.772305 z"
       inkscape:connector-curvature="0" />
  </g>
</svg>
